chr - Chr01 1 1 44965197 lum70chr6
chr - Chr02 2 1 59529170 lum70chr5
chr - Chr03 3 1 83952244 lum70chr8
chr - Chr04 4 1 41160059 lum80chr9
chr - Chr05 5 1 76243064 lum70chr11
chr - Chr06 6 1 57472304 lum70chr12
chr - Chr07 7 1 54830020 lum70chr13
chr - Chr08 8 1 72515979 lum70chr16
chr - Chr09 9 1 39307835 lum70chr17
chr - Chr10 10 1 37777128 lum70chr18
chr - Chr11 11 1 44836791 lum70chr19
