Scaffold ID,scaffold position,LG,genetic position
scf7180000003654_nd_1406000_3279616,51053,1,2.357
scf7180000003654_nd_1406000_3279616,206700,1,2.343
scf7180000003654_nd_1406000_3279616,242306,1,2.359
scf7180000003654_nd_1406000_3279616,302698,1,2.373
scf7180000003654_nd_1406000_3279616,320972,1,2.373
scf7180000003654_nd_1406000_3279616,405317,1,2.411
scf7180000003691_nd_2000_1347500,611005,1,6.646
scf7180000003691_nd_2000_1347500,527234,1,5.863
scf7180000003654_nd_0_1405800,664308,1,4.124
scf7180000003654_nd_1406000_3279616,1113251,1,0
scf7180000003654_nd_1406000_3279616,455711,1,2.077
scf7180000003482_nd_599100_2627500,902628,1,4.965
scf7180000003482_nd_599100_2627500,931185,1,4.989
scf7180000003482_nd_599100_2627500,954344,1,4.977
scf7180000004541_nd_61600_8513000,7144011,1,13.35
scf7180000004541_nd_61600_8513000,6549175,1,13.35
scf7180000004541_nd_61600_8513000,6460214,1,13.039
scf7180000004541_nd_61600_8513000,5692601,1,12.18
scf7180000004541_nd_61600_8513000,5617234,1,12.221
scf7180000004541_nd_61600_8513000,5326054,1,11.303
scf7180000004541_nd_61600_8513000,4790235,1,11.006
scf7180000004541_nd_61600_8513000,4620624,1,11.011
scf7180000004541_nd_61600_8513000,4548033,1,10.728
scf7180000004541_nd_61600_8513000,3964127,1,10.434
scf7180000004541_nd_61600_8513000,3702201,1,10.152
scf7180000004541_nd_61600_8513000,3045159,1,10.147
scf7180000004541_nd_61600_8513000,2998736,1,10.111
scf7180000004541_nd_61600_8513000,2935187,1,10.151
scf7180000004541_nd_61600_8513000,2756252,1,9.859
scf7180000004541_nd_61600_8513000,2688431,1,9.845
scf7180000004541_nd_61600_8513000,1544852,1,8.778
scf7180000004541_nd_61600_8513000,696650,1,7.895
scf7180000003548_nd_0_530400,98816,1,7.909
scf7180000003548_nd_0_530400,200109,1,7.902
scf7180000003393_nd_35000_4397600,2517265,1,35.004
scf7180000003393_nd_35000_4397600,2320211,1,36.312
scf7180000003393_nd_35000_4397600,2300486,1,36.987
scf7180000003393_nd_35000_4397600,1429120,1,39.402
scf7180000004360_nd_0_4027500,1063970,1,18.244
scf7180000004360_nd_0_4027500,1001436,1,18.254
scf7180000004360_nd_0_4027500,943019,1,18.242
scf7180000004360_nd_0_4027500,606713,1,18.256
scf7180000004360_nd_0_4027500,348910,1,17.648
scf7180000004531_nd_19700_3191000,2512229,1,15.69
scf7180000004531_nd_19700_3191000,2119271,1,15.688
scf7180000004531_nd_19700_3191000,2008911,1,15.691
scf7180000004531_nd_19700_3191000,1622108,1,15.749
scf7180000004531_nd_19700_3191000,1531286,1,15.607
scf7180000004531_nd_19700_3191000,1135285,1,15.695
scf7180000003925_nd_2700_555700,418771,1,7.987
scf7180000003925_nd_2700_555700,102962,1,7.902
scf7180000003393_nd_35000_4397600,3009506,1,31.831
scf7180000003393_nd_35000_4397600,3306578,1,29.253
scf7180000003393_nd_35000_4397600,3394833,1,28.934
scf7180000003393_nd_35000_4397600,3620820,1,28.016
scf7180000003393_nd_35000_4397600,4299546,1,25.493
scf7180000004372_nd_0_432982,151198,1,24.56
scf7180000004360_nd_0_4027500,3921136,1,24.569
scf7180000004360_nd_0_4027500,3870590,1,23.663
scf7180000004360_nd_0_4027500,3436172,1,20.335
scf7180000004360_nd_0_4027500,3201714,1,20.328
scf7180000004360_nd_0_4027500,3168579,1,20.328
scf7180000004360_nd_0_4027500,2322182,1,19.132
scf7180000004360_nd_0_4027500,1878052,1,19.13
scf7180000004360_nd_0_4027500,1730018,1,19.13
scf7180000004360_nd_0_4027500,1729535,1,19.234
scf7180000004360_nd_0_4027500,1713584,1,18.831
scf7180000004360_nd_0_4027500,1270109,1,18.242
scf7180000003393_nd_35000_4397600,456541,1,41.427
scf7180000004526_nd_0_867600,854263,1,44.115
scf7180000003887_nd_0_486100,249145,1,45.018
scf7180000003887_nd_0_486100,218702,1,45.018
scf7180000003887_nd_0_486100,67865,1,45.015
scf7180000003537_nd_100_1162696,211349,1,45.002
scf7180000003537_nd_100_1162696,366050,1,45.285
scf7180000003537_nd_100_1162696,372754,1,45.287
scf7180000003537_nd_100_1162696,667042,1,45.294
scf7180000003537_nd_100_1162696,713476,1,45.262
scf7180000003537_nd_100_1162696,749281,1,45.892
scf7180000003537_nd_100_1162696,1050155,1,46.023
scf7180000003434_nd_0_1017682,764611,1,47.079
scf7180000003434_nd_0_1017682,334153,1,47.99
scf7180000003434_nd_0_1017682,272550,1,47.99
scf7180000003434_nd_0_1017682,269066,1,48.291
scf7180000003434_nd_0_1017682,221022,1,48.643
scf7180000003434_nd_0_1017682,175475,1,48.891
scf7180000003434_nd_0_1017682,54256,1,49.491
scf7180000003379_nd_3000_5692212,5416429,1,50.981
scf7180000003465_nd_0_1370400,1252072,1,53.077
scf7180000003465_nd_0_1370400,1183085,1,53.086
scf7180000003465_nd_0_1370400,1181050,1,53.086
scf7180000003465_nd_0_1370400,1088827,1,53.386
scf7180000003465_nd_0_1370400,1088660,1,53.385
scf7180000003465_nd_0_1370400,1079582,1,53.387
scf7180000003465_nd_0_1370400,1077542,1,53.386
scf7180000003465_nd_0_1370400,973438,1,54.248
scf7180000003465_nd_0_1370400,447441,1,57.268
scf7180000003465_nd_0_1370400,337978,1,57.877
scf7180000003439_nd_0_4206200,43257,1,57.876
scf7180000003439_nd_0_4206200,235839,1,57.876
scf7180000003439_nd_0_4206200,393387,1,60.293
scf7180000003439_nd_0_4206200,446812,1,60.569
scf7180000003439_nd_0_4206200,572532,1,60.897
scf7180000003439_nd_0_4206200,608276,1,61.199
scf7180000003439_nd_0_4206200,1113901,1,62.45
scf7180000003439_nd_0_4206200,1793288,1,64.788
scf7180000003439_nd_0_4206200,1863345,1,65.089
scf7180000003439_nd_0_4206200,1864273,1,65.09
scf7180000003439_nd_0_4206200,1908418,1,65.991
scf7180000003439_nd_0_4206200,2064247,1,66.889
scf7180000003439_nd_0_4206200,2171465,1,68.085
scf7180000003439_nd_0_4206200,2385787,1,68.388
scf7180000003439_nd_0_4206200,2490062,1,68.967
scf7180000003439_nd_0_4206200,2541900,1,69.858
scf7180000003439_nd_0_4206200,2675456,1,69.864
scf7180000003439_nd_0_4206200,2803952,1,70.161
scf7180000003439_nd_0_4206200,3229842,1,70.45
scf7180000003439_nd_0_4206200,3338231,1,70.464
scf7180000003439_nd_0_4206200,3361449,1,70.746
scf7180000003439_nd_0_4206200,3379933,1,70.711
scf7180000003439_nd_0_4206200,3522174,1,71.021
scf7180000003735_nd_21200_77100,45296,1,71.042
scf7180000003534_nd_0_2227000,1897508,1,72.795
scf7180000003534_nd_0_2227000,1791565,1,73.093
scf7180000003534_nd_0_2227000,1784512,1,73.204
scf7180000003534_nd_0_2227000,1733264,1,73.408
scf7180000003534_nd_0_2227000,1730353,1,73.704
scf7180000003534_nd_0_2227000,1717932,1,74
scf7180000003555_nd_4200_55800,44138,1,74.593
scf7180000003534_nd_0_2227000,163872,1,76.668
scf7180000003426_nd_296800_1717800,499469,1,77.26
scf7180000003426_nd_296800_1717800,618129,1,77.26
scf7180000003426_nd_296800_1717800,641173,1,77.54
scf7180000003426_nd_296800_1717800,1348237,1,77.54
scf7180000003433_nd_1272700_4949494,3136962,6,48.315
scf7180000003433_nd_1272700_4949494,3146626,6,48.307
scf7180000003607_nd_3500_2893800,2773684,2,0.12
scf7180000003607_nd_3500_2893800,2457148,2,0
scf7180000003607_nd_3500_2893800,2434916,2,0.017
scf7180000003607_nd_3500_2893800,2215503,2,0.718
scf7180000003655_nd_34050800_37992200,290013,2,3.467
scf7180000003438_nd_900_1464400,157234,2,4.984
scf7180000003438_nd_900_1464400,364740,2,5.878
scf7180000003438_nd_900_1464400,374532,2,5.878
scf7180000003438_nd_900_1464400,662525,2,6.114
scf7180000003438_nd_900_1464400,673849,2,6.181
scf7180000003435_nd_800_1181900,1149023,2,7.081
scf7180000003435_nd_800_1181900,564424,2,9.812
scf7180000003435_nd_800_1181900,510494,2,10.115
scf7180000003435_nd_800_1181900,490055,2,10.099
scf7180000003435_nd_800_1181900,400358,2,10.418
scf7180000003435_nd_800_1181900,263911,2,10.982
scf7180000003435_nd_800_1181900,258184,2,11.012
scf7180000003435_nd_800_1181900,127907,2,11.579
scf7180000003435_nd_800_1181900,62711,2,11.91
scf7180000003416_nd_498800_2673800,101609,2,13.555
scf7180000003416_nd_498800_2673800,212185,2,13.853
scf7180000003416_nd_498800_2673800,756171,2,14.959
scf7180000003416_nd_498800_2673800,758917,2,14.981
scf7180000003416_nd_498800_2673800,1013247,2,15.621
scf7180000003416_nd_498800_2673800,1172443,2,15.734
scf7180000003527_nd_0_1410300,523068,2,16.507
scf7180000003527_nd_0_1410300,888829,2,27.507
scf7180000003527_nd_0_1410300,891321,2,27.503
scf7180000003527_nd_0_1410300,911168,2,16.507
scf7180000003527_nd_0_1410300,1390545,2,16.499
scf7180000004264_nd_300_20933,1562,2,18.283
scf7180000003756_nd_400_94006,56153,7,0.298
scf7180000003756_nd_400_94006,53619,7,1.185
scf7180000004518_nd_5828800_9187500,2261852,2,21.533
scf7180000003731_nd_0_720600,22886,2,18.874
scf7180000003345_nd_32900_1673300,798835,2,18.103
scf7180000003396_nd_6300_2921300,2057487,2,18.067
scf7180000003740_nd_8200_402000,124796,2,18.284
scf7180000003731_nd_0_720600,401553,2,18.804
scf7180000004518_nd_5828800_9187500,2843034,2,20.161
scf7180000004518_nd_5828800_9187500,2473863,2,20.69
scf7180000003368_nd_400_1546100,468083,2,23.284
scf7180000003368_nd_400_1546100,1270906,2,23.859
scf7180000003368_nd_400_1546100,1521603,2,24.142
scf7180000003368_nd_400_1546100,1522099,2,24.48
scf7180000003924_nd_0_597900,532233,2,24.87
scf7180000003627_nd_4000_727100,383276,2,24.799
scf7180000003627_nd_4000_727100,380535,2,24.673
scf7180000003627_nd_4000_727100,52381,2,24.763
scf7180000003315_nd_42100_4407600,129372,2,24.758
scf7180000003924_nd_0_597900,220895,2,24.764
scf7180000003350_nd_12900_1390272,312567,2,24.857
scf7180000003315_nd_42100_4407600,4314142,2,25.316
scf7180000003933_nd_226800_598200,86924,2,25.24
scf7180000003933_nd_226800_598200,175383,2,25.312
scf7180000003933_nd_3100_226700,105431,2,25.312
scf7180000003533_nd_24400_3046900,152679,2,28.092
scf7180000004540_nd_6000_1887600,512392,2,27.797
scf7180000003533_nd_24400_3046900,788025,2,27.798
scf7180000003533_nd_24400_3046900,1226317,2,27.506
scf7180000004518_nd_25900_5828300,356104,2,27.506
scf7180000004042_nd_11200_31500,13066,2,27.506
scf7180000003617_nd_0_848700,400213,2,27.507
scf7180000003315_nd_42100_4407600,3333336,2,25.029
scf7180000003533_nd_24400_3046900,2560593,2,26.452
scf7180000003740_nd_8200_402000,341450,2,18.283
scf7180000003536_nd_1073100_2372800,814087,2,26.362
scf7180000003536_nd_1073100_2372800,658699,2,26.362
scf7180000003536_nd_1073100_2372800,436398,2,26.567
scf7180000003966_ld_0_9000,8226,2,27.513
scf7180000003536_nd_1073100_2372800,1130227,2,25.496
scf7180000004559_nd_4585200_6178700,61940,5,26.211
scf7180000003456_nd_0_1286300,141769,2,28.092
scf7180000003456_nd_0_1286300,716474,2,28.121
scf7180000003456_nd_0_1286300,884050,2,28.103
scf7180000003668_nd_0_477100,97116,2,28.279
scf7180000003668_nd_0_477100,18647,2,28.38
scf7180000003663_nd_100_1563900,1432002,2,30.332
scf7180000003663_nd_100_1563900,1203893,2,30.66
scf7180000003663_nd_100_1563900,1103047,2,31.265
scf7180000003663_nd_100_1563900,992891,2,31.797
scf7180000003663_nd_100_1563900,845455,2,32.048
scf7180000003663_nd_100_1563900,715547,2,32.094
scf7180000003663_nd_100_1563900,177646,2,35.331
scf7180000003417_nd_2902000_3935000,940866,2,35.331
scf7180000003417_nd_2902000_3935000,828728,2,35.389
scf7180000003417_nd_2902000_3935000,715460,2,35.375
scf7180000003417_nd_2902000_3935000,177383,2,35.644
scf7180000003417_nd_2902000_3935000,137941,2,36.121
scf7180000003417_nd_2902000_3935000,34935,2,36.551
scf7180000003417_nd_2902000_3935000,3014,2,36.696
scf7180000003417_nd_592300_2901900,1842185,2,41.874
scf7180000003417_nd_592300_2901900,1841248,2,41.843
scf7180000004518_nd_5828800_9187500,3223702,2,20.163
scf7180000004531_nd_19700_3191000,632753,1,15.688
scf7180000004531_nd_19700_3191000,80979,1,14.227
scf7180000004531_nd_19700_3191000,52945,1,14.239
scf7180000004541_nd_61600_8513000,7815328,1,13.934
scf7180000004540_nd_1889200_5363800,903446,2,52.366
scf7180000004540_nd_1889200_5363800,986675,2,54.029
scf7180000004540_nd_1889200_5363800,991515,2,54.029
scf7180000004540_nd_1889200_5363800,1191535,2,55.225
scf7180000004540_nd_1889200_5363800,1313861,2,55.937
scf7180000004540_nd_1889200_5363800,1734064,2,56.009
scf7180000004540_nd_1889200_5363800,1913494,2,56.335
scf7180000004540_nd_1889200_5363800,2203942,2,59.21
scf7180000004540_nd_1889200_5363800,2380019,2,60.474
scf7180000004540_nd_1889200_5363800,2387026,2,60.473
scf7180000004540_nd_1889200_5363800,3032936,2,66.949
scf7180000004540_nd_1889200_5363800,2790898,2,62.595
scf7180000004540_nd_1889200_5363800,2702812,2,61.723
scf7180000004540_nd_1889200_5363800,2698408,2,61.677
scf7180000004540_nd_1889200_5363800,2644778,2,60.474
scf7180000003346_nd_1834100_4807500,608602,2,71.749
scf7180000003346_nd_1834100_4807500,603937,2,71.742
scf7180000003346_nd_1834100_4807500,592125,2,71.749
scf7180000003346_nd_1834100_4807500,538380,2,72.334
scf7180000003346_nd_1834100_4807500,484839,2,72.328
scf7180000003346_nd_1834100_4807500,475546,2,72.627
scf7180000003346_nd_1834100_4807500,400500,2,72.597
scf7180000003346_nd_1834100_4807500,391129,2,72.627
scf7180000003346_nd_1834100_4807500,278147,2,73.211
scf7180000003346_nd_1834100_4807500,196479,2,73.206
scf7180000003346_nd_1834100_4807500,173830,2,73.211
scf7180000003346_nd_1834100_4807500,131214,2,73.479
scf7180000003346_nd_1834100_4807500,107979,2,73.454
scf7180000003361_nd_7900_998900,935689,2,73.794
scf7180000003361_nd_7900_998900,929986,2,73.785
scf7180000003361_nd_7900_998900,907042,2,73.794
scf7180000003361_nd_7900_998900,703886,2,75.54
scf7180000003361_nd_7900_998900,686830,2,75.521
scf7180000003361_nd_7900_998900,647589,2,75.83
scf7180000003361_nd_7900_998900,617260,2,76.379
scf7180000003361_nd_7900_998900,568213,2,76.379
scf7180000003361_nd_7900_998900,477009,2,76.379
scf7180000003361_nd_7900_998900,440895,2,76.38
scf7180000003361_nd_7900_998900,318634,2,76.671
scf7180000003361_nd_7900_998900,210314,2,76.667
scf7180000003361_nd_7900_998900,209709,2,76.671
scf7180000003386_nd_200_327837,26969,2,77.547
scf7180000003386_nd_200_327837,42491,2,77.839
scf7180000003386_nd_200_327837,82301,2,77.965
scf7180000003386_nd_200_327837,124663,2,77.841
scf7180000003386_nd_200_327837,181197,2,77.839
scf7180000003386_nd_200_327837,183200,2,77.839
scf7180000003995_nd_0_1543339,56176,2,78.422
scf7180000003995_nd_0_1543339,97867,2,78.999
scf7180000003995_nd_0_1543339,201714,2,79.091
scf7180000003995_nd_0_1543339,325940,2,79.874
scf7180000003995_nd_0_1543339,355980,2,79.874
scf7180000003995_nd_0_1543339,403797,2,80.165
scf7180000003995_nd_0_1543339,432730,2,80.456
scf7180000003995_nd_0_1543339,457585,2,80.456
scf7180000003995_nd_0_1543339,559281,2,80.731
scf7180000003995_nd_0_1543339,576724,2,80.731
scf7180000003995_nd_0_1543339,610075,2,81.021
scf7180000003995_nd_0_1543339,639208,2,81.603
scf7180000003995_nd_0_1543339,669152,2,81.904
scf7180000003995_nd_0_1543339,670829,2,81.894
scf7180000003995_nd_0_1543339,676516,2,81.894
scf7180000003995_nd_0_1543339,712569,2,82.214
scf7180000003995_nd_0_1543339,742453,2,82.185
scf7180000003995_nd_0_1543339,884708,2,82.477
scf7180000004027_nd_25300_48300,559,2,82.768
scf7180000003995_nd_0_1543339,996426,2,82.768
scf7180000003995_nd_0_1543339,1019931,2,83.06
scf7180000003995_nd_0_1543339,1117235,2,83.06
scf7180000003995_nd_0_1543339,1117333,2,83.106
scf7180000003995_nd_0_1543339,1208481,2,83.134
scf7180000003995_nd_0_1543339,1213538,2,82.953
scf7180000003995_nd_0_1543339,1334117,2,82.941
scf7180000003384_nd_16700_1280600,919665,5,60.367
scf7180000003410_nd_300_508284,235823,7,3.19
scf7180000003606_nd_0_2036800,790504,3,89.018
scf7180000003445_nd_20100_1924900,1429039,3,0
scf7180000003445_nd_20100_1924900,1661388,3,1.477
scf7180000003640_nd_0_625239,495855,3,1.466
scf7180000003640_nd_0_625239,42165,3,5.761
scf7180000003755_nd_755600_1532200,639124,3,17.535
scf7180000003755_nd_755600_1532200,178176,3,26.215
scf7180000003510_ld_6900_20200,1597,3,34.269
scf7180000003621_nd_27600_1843600,685598,1,70.422
scf7180000003655_nd_770200_6351000,3017850,3,32.497
scf7180000003655_nd_770200_6351000,3137790,3,31.934
scf7180000003360_nd_4188800_6568365,1234889,3,38.158
scf7180000003360_nd_4188800_6568365,1239774,3,38.092
scf7180000003360_nd_4188800_6568365,1239888,3,38.067
scf7180000003360_nd_4188800_6568365,1922529,3,37.537
scf7180000003360_nd_3030100_3750200,508387,3,41.23
scf7180000003360_nd_4188800_6568365,181653,3,40.422
scf7180000003360_nd_4188800_6568365,396302,3,39.857
scf7180000003360_nd_4188800_6568365,544491,3,39.264
scf7180000003350_nd_12900_1390272,775918,11,14.276
scf7180000004519_nd_1899100_12716031,909539,3,46.01
scf7180000004519_nd_1899100_12716031,693868,3,47.561
scf7180000004519_nd_1899100_12716031,413283,3,49.706
scf7180000004519_nd_1899100_12716031,219864,3,49.977
scf7180000004519_nd_1899100_12716031,217983,3,50.166
scf7180000004519_nd_10900_1898400,1767360,3,50.156
scf7180000004519_nd_10900_1898400,1589023,3,50.473
scf7180000004519_nd_10900_1898400,975796,3,51.393
scf7180000004547_nd_45700_2050600,1279346,3,60.338
scf7180000004547_nd_45700_2050600,1197671,3,60.324
scf7180000003911_nd_0_289991,207452,3,60.944
scf7180000003351_nd_2541000_2837537,216495,3,57.806
scf7180000003382_nd_3789000_8551200,2901902,5,34.353
scf7180000003291_nd_2472200_4091200,679402,3,66.991
scf7180000003291_nd_2472200_4091200,330340,3,66.07
scf7180000003655_nd_34050800_37992200,3851021,3,68.497
scf7180000003655_nd_34050800_37992200,3677398,3,68.497
scf7180000003655_nd_34050800_37992200,3673114,3,68.483
scf7180000003655_nd_34050800_37992200,3642362,3,69.152
scf7180000003655_nd_34050800_37992200,3616810,3,69.095
scf7180000003655_nd_34050800_37992200,3428507,3,70.538
scf7180000003655_nd_34050800_37992200,3294125,3,70.598
scf7180000003655_nd_34050800_37992200,3260573,3,70.594
scf7180000003655_nd_34050800_37992200,3179139,3,70.583
scf7180000003655_nd_34050800_37992200,3158312,3,70.598
scf7180000003291_nd_2472200_4091200,1430906,3,67.895
scf7180000003297_nd_0_501100,35401,3,68.198
scf7180000003655_nd_34050800_37992200,1236258,3,72.481
scf7180000003655_nd_34050800_37992200,982964,3,72.381
scf7180000003655_nd_34050800_37992200,849444,3,72.387
scf7180000003655_nd_34050800_37992200,772741,3,72.686
scf7180000003564_nd_86500_1392400,1124118,3,74.484
scf7180000003564_nd_86500_1392400,935209,3,76.27
scf7180000003564_nd_86500_1392400,722692,3,77.165
scf7180000003564_nd_86500_1392400,312174,3,77.165
scf7180000003564_nd_86500_1392400,50529,3,78.645
scf7180000003655_nd_34050800_37992200,1829155,3,71.778
scf7180000003655_nd_34050800_37992200,1866316,3,71.483
scf7180000003621_nd_27600_1843600,79441,3,88.67
scf7180000003621_nd_27600_1843600,100732,3,88.682
scf7180000003621_nd_27600_1843600,200488,3,88.671
scf7180000003621_nd_27600_1843600,213883,3,88.682
scf7180000003621_nd_27600_1843600,216229,3,88.757
scf7180000003621_nd_27600_1843600,285785,3,88.683
scf7180000003621_nd_27600_1843600,408024,3,88.671
scf7180000003621_nd_27600_1843600,951939,3,87.824
scf7180000003621_nd_27600_1843600,958644,3,87.813
scf7180000003573_nd_809200_2022381,865822,3,79.241
scf7180000003573_nd_809200_2022381,744326,3,79.854
scf7180000003573_nd_809200_2022381,603947,3,80.124
scf7180000003573_nd_809200_2022381,603241,3,80.128
scf7180000003573_nd_809200_2022381,592148,3,80.422
scf7180000003573_nd_809200_2022381,447577,3,81.908
scf7180000003573_nd_809200_2022381,446084,3,81.908
scf7180000003741_nd_26800_1579500,1137141,3,82.501
scf7180000003741_nd_26800_1579500,894731,3,83.963
scf7180000003741_nd_26800_1579500,696324,3,86.011
scf7180000003621_nd_27600_1843600,1703706,3,86.608
scf7180000003621_nd_27600_1843600,1742117,3,86.379
scf7180000003621_nd_27600_1843600,1608209,3,86.927
scf7180000003621_nd_27600_1843600,1412104,5,74.117
scf7180000004527_nd_0_6445100,3911444,4,0
scf7180000004527_nd_0_6445100,3003143,5,48.236
scf7180000004527_nd_0_6445100,2612947,4,0.318
scf7180000004527_nd_0_6445100,2435593,4,1.441
scf7180000004527_nd_0_6445100,2191574,4,3.124
scf7180000004527_nd_0_6445100,1817528,4,3.837
scf7180000004527_nd_0_6445100,1777102,4,3.875
scf7180000004527_nd_0_6445100,1738157,4,3.837
scf7180000004527_nd_0_6445100,1473695,4,5.027
scf7180000003326_nd_29100_3166900,161722,4,5.611
scf7180000003326_nd_29100_3166900,1331008,4,6.506
scf7180000003326_nd_29100_3166900,1331840,4,6.518
scf7180000003326_nd_29100_3166900,1350413,4,6.518
scf7180000003326_nd_29100_3166900,1351089,4,6.537
scf7180000003326_nd_29100_3166900,1891412,4,6.501
scf7180000003326_nd_29100_3166900,1894907,4,6.57
scf7180000003326_nd_29100_3166900,2898277,4,6.814
scf7180000003326_nd_29100_3166900,2932279,4,7.405
scf7180000004524_nd_600_2435500,2348407,4,7.984
scf7180000004524_nd_600_2435500,2219989,4,8.651
scf7180000004524_nd_600_2435500,2093010,4,8.885
scf7180000004524_nd_600_2435500,1870681,4,9.766
scf7180000004524_nd_600_2435500,1608198,4,10.062
scf7180000004524_nd_600_2435500,1607231,4,10.055
scf7180000004542_nd_2600_1726414,1222210,5,50.337
scf7180000004524_nd_600_2435500,1296941,4,10.699
scf7180000004524_nd_600_2435500,648237,4,11.243
scf7180000004524_nd_600_2435500,440237,4,12.074
scf7180000004524_nd_600_2435500,273489,4,12.065
scf7180000003655_nd_31780700_33893200,108261,4,12.792
scf7180000003655_nd_31780700_33893200,115589,4,12.663
scf7180000003655_nd_31780700_33893200,703847,4,12.663
scf7180000003655_nd_31780700_33893200,1569964,4,12.069
scf7180000003655_nd_31780700_33893200,1764228,4,12.074
scf7180000003655_nd_31780700_33893200,1828542,4,12.071
scf7180000003655_nd_27241000_30636500,265288,4,17.85
scf7180000003655_nd_27241000_30636500,221063,4,17.283
scf7180000003476_nd_0_134647,38408,4,17.853
scf7180000003380_nd_5200_3920400,403005,4,20.808
scf7180000003380_nd_5200_3920400,433388,4,21.097
scf7180000003380_nd_5200_3920400,1781139,4,21.101
scf7180000003380_nd_5200_3920400,2058705,4,21.465
scf7180000003380_nd_5200_3920400,2063636,4,21.112
scf7180000003380_nd_5200_3920400,2076010,4,20.968
scf7180000003380_nd_5200_3920400,2974910,4,21.389
scf7180000003380_nd_5200_3920400,3013687,4,21.336
scf7180000003380_nd_5200_3920400,3460508,4,21.385
scf7180000003380_nd_5200_3920400,3812399,4,21.711
scf7180000003447_nd_14800_4758190,128991,4,22.008
scf7180000003447_nd_14800_4758190,1288692,4,24.387
scf7180000003447_nd_14800_4758190,1360414,4,24.377
scf7180000003655_nd_27241000_30636500,3013195,4,12.918
scf7180000003655_nd_27241000_30636500,3013095,4,13.224
scf7180000003655_nd_27241000_30636500,2988483,4,13.224
scf7180000003655_nd_27241000_30636500,2773173,4,14.067
scf7180000003655_nd_27241000_30636500,2489060,4,15.813
scf7180000003655_nd_27241000_30636500,2486946,4,15.813
scf7180000003655_nd_27241000_30636500,2466476,4,15.953
scf7180000003655_nd_27241000_30636500,2466353,4,15.764
scf7180000004564_nd_7700_2975300,2550446,9,48.442
scf7180000003655_nd_27241000_30636500,1719016,4,16.678
scf7180000003655_nd_27241000_30636500,1431398,4,17.59
scf7180000003568_nd_0_2680500,763686,4,17.568
scf7180000003655_nd_27241000_30636500,1239991,4,17.589
scf7180000003447_nd_14800_4758190,117724,4,17.589
scf7180000003447_nd_14800_4758190,2330877,4,25.244
scf7180000003695_nd_32500_1327700,1079293,5,48.157
scf7180000003929_nd_2600_68000,38498,5,48.055
scf7180000004529_nd_5000_1062600,665456,5,48.487
scf7180000003640_nd_0_625239,271199,5,48.745
scf7180000004529_nd_5000_1062600,979434,5,48.789
scf7180000003447_nd_14800_4758190,3621631,4,25.571
scf7180000003447_nd_14800_4758190,3716046,4,25.571
scf7180000003447_nd_14800_4758190,3877400,4,25.926
scf7180000003447_nd_14800_4758190,4055086,4,27.292
scf7180000003447_nd_14800_4758190,4162529,4,27.311
scf7180000003447_nd_14800_4758190,4169491,4,27.187
scf7180000003447_nd_14800_4758190,4244726,4,27.284
scf7180000003447_nd_14800_4758190,4249541,4,27.291
scf7180000003447_nd_14800_4758190,4475991,4,29.237
scf7180000003447_nd_14800_4758190,4619970,4,29.843
scf7180000003447_nd_14800_4758190,4691639,4,30.147
scf7180000003447_nd_14800_4758190,4733685,4,30.746
scf7180000003395_nd_3700_4198500,156213,4,31.353
scf7180000003395_nd_3700_4198500,310678,4,31.659
scf7180000003395_nd_3700_4198500,483715,4,31.659
scf7180000003395_nd_3700_4198500,530457,4,32.268
scf7180000003395_nd_3700_4198500,642609,4,34.716
scf7180000003395_nd_3700_4198500,796804,4,35.738
scf7180000003395_nd_3700_4198500,1079556,4,36.05
scf7180000003395_nd_3700_4198500,1171589,4,36.396
scf7180000003395_nd_3700_4198500,1398258,4,36.359
scf7180000004559_nd_6178800_7489100,721098,4,38.184
scf7180000003395_nd_3700_4198500,1602628,4,38.48
scf7180000003395_nd_3700_4198500,1629871,4,38.494
scf7180000003395_nd_3700_4198500,3673811,4,47.39
scf7180000003395_nd_3700_4198500,3858980,4,48.491
scf7180000003395_nd_3700_4198500,4005163,4,49.838
scf7180000003395_nd_3700_4198500,4022331,4,49.838
scf7180000003395_nd_3700_4198500,4063354,4,49.783
scf7180000003395_nd_3700_4198500,4102886,4,50.142
scf7180000003395_nd_4198600_6180300,355750,4,51.35
scf7180000003395_nd_4198600_6180300,397533,4,51.952
scf7180000003395_nd_4198600_6180300,540583,4,53.092
scf7180000003395_nd_4198600_6180300,567996,4,53.44
scf7180000003395_nd_4198600_6180300,624642,4,53.438
scf7180000003395_nd_4198600_6180300,854573,4,54.035
scf7180000003395_nd_4198600_6180300,922122,4,55.229
scf7180000003395_nd_4198600_6180300,946525,4,55.515
scf7180000003395_nd_4198600_6180300,1168771,4,55.518
scf7180000003395_nd_4198600_6180300,1295207,4,57.576
scf7180000003395_nd_4198600_6180300,1295748,4,57.593
scf7180000003395_nd_4198600_6180300,1309804,4,57.871
scf7180000003395_nd_4198600_6180300,1415380,4,59.586
scf7180000003395_nd_4198600_6180300,1627531,4,61.068
scf7180000003395_nd_4198600_6180300,1662129,4,61.086
scf7180000004570_nd_0_1121400,62200,5,60.409
scf7180000004560_nd_58300_7373400_2::scf7180000004560_nd_58300_7373400:3902187-7315100,315959,5,0
scf7180000004560_nd_58300_7373400_2::scf7180000004560_nd_58300_7373400:3902187-7315100,316935,5,0.016
scf7180000004560_nd_58300_7373400_2::scf7180000004560_nd_58300_7373400:3902187-7315100,459324,5,0.39
scf7180000004560_nd_58300_7373400_2::scf7180000004560_nd_58300_7373400:3902187-7315100,533210,5,0.654
scf7180000004560_nd_58300_7373400_2::scf7180000004560_nd_58300_7373400:3902187-7315100,550687,5,0.232
scf7180000004560_nd_58300_7373400_2::scf7180000004560_nd_58300_7373400:3902187-7315100,944511,5,0.737
scf7180000004560_nd_58300_7373400_2::scf7180000004560_nd_58300_7373400:3902187-7315100,956515,5,0.955
scf7180000004560_nd_58300_7373400_2::scf7180000004560_nd_58300_7373400:3902187-7315100,1075561,5,2.622
scf7180000004560_nd_58300_7373400_2::scf7180000004560_nd_58300_7373400:3902187-7315100,2330394,5,4.411
scf7180000004560_nd_58300_7373400_2::scf7180000004560_nd_58300_7373400:3902187-7315100,2967281,5,9.492
scf7180000004560_nd_58300_7373400_2::scf7180000004560_nd_58300_7373400:3902187-7315100,3081736,5,9.792
scf7180000004560_nd_7374100_8519600,67752,5,10.091
scf7180000004560_nd_7374100_8519600,156104,5,10.091
scf7180000004560_nd_7374100_8519600,393767,5,10.398
scf7180000004560_nd_7374100_8519600,483849,5,10.389
scf7180000004560_nd_7374100_8519600,499356,5,10.389
scf7180000004560_nd_7374100_8519600,621760,5,11.888
scf7180000004560_nd_7374100_8519600,635074,5,11.878
scf7180000004560_nd_7374100_8519600,895950,5,12.187
scf7180000004560_nd_7374100_8519600,928409,5,12.789
scf7180000003366_nd_0_1323300,1210088,5,13.994
scf7180000003366_nd_0_1323300,1165632,5,14.159
scf7180000003366_nd_0_1323300,1091366,5,15.641
scf7180000003366_nd_0_1323300,751657,5,15.94
scf7180000003366_nd_0_1323300,748073,5,15.964
scf7180000003366_nd_0_1323300,677358,5,16.239
scf7180000003366_nd_0_1323300,652541,5,16.157
scf7180000003366_nd_0_1323300,495742,5,16.239
scf7180000003366_nd_0_1323300,466298,5,16.534
scf7180000003351_nd_0_2539700,1985148,5,18.068
scf7180000003351_nd_0_2539700,1952555,5,19.226
scf7180000003351_nd_0_2539700,922455,5,20.745
scf7180000003351_nd_0_2539700,744388,5,21.033
scf7180000003351_nd_0_2539700,723877,5,21.033
scf7180000003351_nd_0_2539700,330642,5,23.813
scf7180000004546_nd_3100_4496800,836394,5,25.596
scf7180000004546_nd_3100_4496800,884176,5,25.908
scf7180000004546_nd_3100_4496800,884252,5,25.978
scf7180000004546_nd_3100_4496800,904598,5,25.908
scf7180000004546_nd_3100_4496800,1056462,5,26.219
scf7180000004546_nd_3100_4496800,1129742,5,26.219
scf7180000004546_nd_3100_4496800,1443015,5,26.845
scf7180000004546_nd_3100_4496800,1681516,5,28.552
scf7180000004546_nd_3100_4496800,1890745,5,29.015
scf7180000004546_nd_3100_4496800,2124725,5,31.137
scf7180000004546_nd_3100_4496800,2362094,5,32.254
scf7180000004546_nd_3100_4496800,2762977,5,32.538
scf7180000004546_nd_3100_4496800,2858942,5,32.837
scf7180000004546_nd_3100_4496800,3258140,5,33.132
scf7180000003292_nd_0_4222400,2810648,5,33.754
scf7180000004546_nd_3100_4496800,3333599,5,33.654
scf7180000004546_nd_3100_4496800,3379503,5,33.74
scf7180000004546_nd_3100_4496800,3398498,5,33.754
scf7180000004546_nd_3100_4496800,4316866,5,34.36
scf7180000004546_nd_3100_4496800,4400117,5,35.214
scf7180000004546_nd_3100_4496800,4402649,5,35.286
scf7180000004546_nd_3100_4496800,4404124,5,35.286
scf7180000004546_nd_4496900_5379600,26909,5,36.476
scf7180000004546_nd_4496900_5379600,762531,5,36.511
scf7180000004546_nd_5379700_11515300,391779,5,36.476
scf7180000004546_nd_5379700_11515300,1122678,5,36.871
scf7180000004546_nd_5379700_11515300,1157395,5,36.779
scf7180000004546_nd_5379700_11515300,1578341,5,37.358
scf7180000004546_nd_5379700_11515300,2218137,5,37.385
scf7180000004546_nd_5379700_11515300,2612611,5,38.297
scf7180000004546_nd_5379700_11515300,4245848,5,39.958
scf7180000004546_nd_5379700_11515300,4214500,5,40.001
scf7180000003695_nd_32500_1327700,801040,5,40.111
scf7180000004546_nd_5379700_11515300,4085184,5,39.137
scf7180000004546_nd_5379700_11515300,3683170,5,38.264
scf7180000004546_nd_5379700_11515300,3594707,5,38.394
scf7180000004546_nd_5379700_11515300,3594356,5,38.285
scf7180000004546_nd_5379700_11515300,3350423,5,38.218
scf7180000004546_nd_5379700_11515300,5654141,5,42.312
scf7180000004546_nd_5379700_11515300,5999268,5,42.315
scf7180000004546_nd_11515600_13002800,297966,5,44.106
scf7180000004546_nd_11515600_13002800,700327,5,45.598
scf7180000004546_nd_11515600_13002800,786777,5,46.191
scf7180000004546_nd_11515600_13002800,824602,5,46.479
scf7180000004546_nd_11515600_13002800,866451,5,46.478
scf7180000004546_nd_11515600_13002800,1189063,5,46.477
scf7180000004546_nd_11515600_13002800,1191340,5,46.48
scf7180000004546_nd_13003800_13524200,135429,5,46.477
scf7180000004546_nd_13003800_13524200,391439,5,47.057
scf7180000004550_nd_55900_1322100,1255238,5,47.654
scf7180000004550_nd_55900_1322100,1094744,5,47.654
scf7180000003878_nd_0_103800,53140,5,48.036
scf7180000003695_nd_32500_1327700,704552,5,47.925
scf7180000003695_nd_32500_1327700,150395,5,47.68
scf7180000004542_nd_2600_1726414,928341,5,50.006
scf7180000003611_nd_1300_3796800,906101,5,50.124
scf7180000003611_nd_1300_3796800,2005340,5,50.006
scf7180000003611_nd_1300_3796800,2052415,5,50.006
scf7180000003611_nd_1300_3796800,3010528,5,49.713
scf7180000003557_nd_666800_3557660,2657139,5,51.961
scf7180000004559_nd_4585200_6178700,840425,5,51.981
scf7180000004559_nd_4585200_6178700,572900,5,52.03
scf7180000004559_nd_4585200_6178700,339038,5,52.03
scf7180000004559_nd_955100_4584400,3095199,5,51.216
scf7180000004559_nd_955100_4584400,2950807,5,51.211
scf7180000004522_nd_16000_2504400,558396,5,50.009
scf7180000004529_nd_5000_1062600,758865,5,50.015
scf7180000004522_nd_16000_2504400,766395,5,50.015
scf7180000004522_nd_16000_2504400,842818,5,50.008
scf7180000004522_nd_16000_2504400,1077307,5,49.932
scf7180000004542_nd_2600_1726414,501686,5,50.009
scf7180000004520_nd_500_2088800,689719,9,21.38
scf7180000004530_nd_0_967237,623240,5,62.49
scf7180000004530_nd_0_967237,954320,5,62.636
scf7180000003557_nd_666800_3557660,2395511,5,52.292
scf7180000003557_nd_666800_3557660,2187495,5,53.273
scf7180000003557_nd_666800_3557660,2123035,5,54.665
scf7180000003557_nd_666800_3557660,624848,5,57.391
scf7180000003557_nd_666800_3557660,597269,5,57.401
scf7180000003557_nd_666800_3557660,53910,5,59.247
scf7180000003377_nd_0_541894,107512,5,59.208
scf7180000003360_nd_4188800_6568365,1412865,3,37.509
scf7180000003360_nd_4188800_6568365,1413120,3,37.509
scf7180000003360_nd_4188800_6568365,1629885,3,37.492
scf7180000003360_nd_4188800_6568365,1589897,3,37.535
scf7180000003360_nd_4188800_6568365,1960867,3,37.217
scf7180000003360_nd_4188800_6568365,1977199,3,36.69
scf7180000003360_nd_4188800_6568365,2061394,3,36.397
scf7180000003360_nd_4188800_6568365,2224874,3,36.103
scf7180000003473_nd_0_942500,359678,5,62.2
scf7180000003473_nd_0_942500,914948,5,62.433
scf7180000003473_nd_0_942500,691918,5,62.492
scf7180000003473_nd_0_942500,812206,5,62.54
scf7180000003995_nd_0_1543339,1303380,5,62.212
scf7180000003473_nd_0_942500,102079,5,61.888
scf7180000003419_nd_0_453700,179450,5,61.888
scf7180000004570_nd_0_1121400,716861,5,60.082
scf7180000003379_nd_3000_5692212,389246,5,59.229
scf7180000003604_nd_4200_2520900,2313669,5,72.687
scf7180000003604_nd_4200_2520900,2408611,5,72.38
scf7180000004547_nd_45700_2050600,43385,5,71.478
scf7180000004547_nd_45700_2050600,279074,5,70.878
scf7180000004547_nd_45700_2050600,428831,5,70.576
scf7180000004547_nd_45700_2050600,903545,5,68.086
scf7180000003496_nd_22000_586000,319200,5,67.887
scf7180000003496_nd_22000_586000,40147,5,67.872
scf7180000003535_nd_39900_2403602,2237160,5,66.985
scf7180000003535_nd_39900_2403602,2202926,5,66.395
scf7180000003535_nd_39900_2403602,2196623,5,66.395
scf7180000003535_nd_39900_2403602,1888859,5,64.608
scf7180000003535_nd_39900_2403602,1794896,5,64.719
scf7180000003535_nd_39900_2403602,1328081,5,63.401
scf7180000003535_nd_39900_2403602,1280399,5,63.401
scf7180000003535_nd_39900_2403602,1012208,5,63.108
scf7180000003535_nd_39900_2403602,860866,5,62.807
scf7180000003535_nd_39900_2403602,196846,5,62.559
scf7180000003535_nd_39900_2403602,469816,5,62.528
scf7180000004545_nd_2882400_3578470,324702,5,62.587
scf7180000003604_nd_4200_2520900,1145774,5,72.986
scf7180000003604_nd_4200_2520900,969760,5,72.969
scf7180000003604_nd_4200_2520900,760672,5,73.861
scf7180000003604_nd_4200_2520900,298274,5,74.718
scf7180000003604_nd_4200_2520900,283138,5,74.743
scf7180000003904_nd_800_198417,112180,6,102.413
scf7180000003322_nd_3600_4051200,2041615,6,2.038
scf7180000003322_nd_3600_4051200,115895,6,0
scf7180000003741_nd_26800_1579500,269414,3,86.314
scf7180000004378_nd_0_151800,53347,3,86.64
scf7180000004378_nd_0_151800,69525,3,86.335
scf7180000003322_nd_3600_4051200,2499214,6,2.628
scf7180000003322_nd_3600_4051200,2392343,6,2.017
scf7180000003322_nd_3600_4051200,2347025,6,1.997
scf7180000003322_nd_3600_4051200,2119431,6,2.034
scf7180000003322_nd_4051400_4521700,229279,6,8.634
scf7180000003322_nd_3600_4051200,3996656,6,8.332
scf7180000003322_nd_3600_4051200,3839471,6,8.031
scf7180000003322_nd_3600_4051200,3597308,6,6.835
scf7180000003322_nd_3600_4051200,2949632,6,5.31
scf7180000003433_nd_300_1272200,549386,6,8.737
scf7180000004539_nd_44100_429400,215090,6,13.989
scf7180000004539_nd_44100_429400,69507,6,13.989
scf7180000003819_nd_36100_472200,248170,6,11.082
scf7180000003819_nd_36100_472200,61079,6,11.069
scf7180000003819_nd_36100_472200,59389,6,11.069
scf7180000003889_nd_0_506291,483698,6,11.071
scf7180000003889_nd_0_506291,445599,6,11.138
scf7180000003889_nd_0_506291,432694,6,11.058
scf7180000003778_nd_0_886145,102731,6,11.372
scf7180000003778_nd_0_886145,115818,6,11.676
scf7180000003778_nd_0_886145,134237,6,12.024
scf7180000003778_nd_0_886145,250217,6,11.98
scf7180000003778_nd_0_886145,826251,6,13.691
scf7180000003778_nd_0_886145,841212,6,14.111
scf7180000004539_nd_44100_429400,123105,6,13.979
scf7180000003555_nd_56900_1016100,41793,6,16.396
scf7180000003555_nd_56900_1016100,221566,6,18.23
scf7180000003555_nd_56900_1016100,601806,6,18.516
scf7180000003717_nd_42200_191200,53950,6,19.239
scf7180000003717_nd_42200_191200,39497,6,19.241
scf7180000003717_nd_42200_191200,11194,6,19.686
scf7180000003510_nd_21500_199300,151433,6,19.686
scf7180000003697_nd_300_444500,132357,6,19.594
scf7180000003396_nd_6300_2921300,1502443,6,20.263
scf7180000003396_nd_6300_2921300,1571135,6,21.14
scf7180000003396_nd_6300_2921300,1735191,6,22.919
scf7180000004525_nd_20500_4668100,3588676,6,23.051
scf7180000004389_nd_900_165000,5048,6,20.648
scf7180000003396_nd_6300_2921300,2064441,6,23.251
scf7180000003396_nd_6300_2921300,2608917,6,23.164
scf7180000003345_nd_32900_1673300,737902,6,24.753
scf7180000003345_nd_32900_1673300,264230,6,27.123
scf7180000004557_nd_0_201656,128268,6,27.011
scf7180000004543_nd_223000_1539400,139465,6,27.123
scf7180000004543_nd_223000_1539400,170396,6,27.365
scf7180000004543_nd_223000_1539400,212240,6,27.61
scf7180000004543_nd_223000_1539400,671782,6,29.12
scf7180000004543_nd_223000_1539400,748535,6,29.729
scf7180000004543_nd_223000_1539400,891156,6,29.96
scf7180000004543_nd_223000_1539400,1223428,6,30.565
scf7180000004543_nd_223000_1539400,1251221,6,31.452
scf7180000004543_nd_223000_1539400,1269645,6,32.264
scf7180000004543_nd_223000_1539400,1273559,6,32.264
scf7180000003455_nd_500_5045500,169903,6,32.553
scf7180000003455_nd_500_5045500,447470,6,32.553
scf7180000003455_nd_500_5045500,649392,6,32.549
scf7180000003455_nd_500_5045500,897278,6,32.851
scf7180000003455_nd_500_5045500,1641570,6,33.315
scf7180000003455_nd_500_5045500,1810162,6,33.466
scf7180000003455_nd_500_5045500,1976559,6,33.771
scf7180000003455_nd_500_5045500,2207713,6,33.774
scf7180000003455_nd_500_5045500,2326269,6,33.774
scf7180000003455_nd_500_5045500,2419286,6,34.676
scf7180000003455_nd_500_5045500,2423360,2,19.006
scf7180000003455_nd_500_5045500,2454052,6,34.973
scf7180000003573_nd_9200_806400,679084,6,39.802
scf7180000003573_nd_9200_806400,316277,6,40.107
scf7180000003455_nd_500_5045500,3734993,6,34.972
scf7180000003455_nd_500_5045500,4160510,6,35.863
scf7180000003455_nd_500_5045500,4436046,6,37.681
scf7180000004517_nd_29400_913982,638114,6,38.451
scf7180000004517_nd_29400_913982,621913,6,38.451
scf7180000004517_nd_29400_913982,455660,6,38.934
scf7180000004517_nd_29400_913982,406079,6,38.936
scf7180000003430_nd_21100_3910348,3540004,6,46.041
scf7180000003430_nd_21100_3910348,3264839,6,44.733
scf7180000003430_nd_21100_3910348,3250354,6,44.732
scf7180000003430_nd_21100_3910348,3221003,6,44.745
scf7180000003430_nd_21100_3910348,3198610,6,44.734
scf7180000003430_nd_21100_3910348,2815202,6,43.556
scf7180000003430_nd_21100_3910348,2777166,6,43.557
scf7180000003430_nd_21100_3910348,2328224,6,43.557
scf7180000003430_nd_21100_3910348,2205463,6,42.966
scf7180000003430_nd_21100_3910348,1247602,6,42.678
scf7180000003430_nd_21100_3910348,1102372,6,42.087
scf7180000003430_nd_21100_3910348,841335,6,41.864
scf7180000003430_nd_21100_3910348,768926,6,41.505
scf7180000003430_nd_21100_3910348,724236,6,41.566
scf7180000003430_nd_21100_3910348,598436,6,41.581
scf7180000003430_nd_21100_3910348,443893,6,41.566
scf7180000003430_nd_21100_3910348,311437,6,41.234
scf7180000003430_nd_21100_3910348,223878,6,40.982
scf7180000003430_nd_21100_3910348,157318,6,40.694
scf7180000003430_nd_21100_3910348,55905,6,40.4
scf7180000003500_nd_22400_382800,347942,6,40.388
scf7180000003500_nd_22400_382800,258082,6,40.351
scf7180000003500_nd_22400_382800,137998,6,40.4
scf7180000003838_nd_0_526500,396174,6,40.103
scf7180000003433_nd_1272700_4949494,2744702,6,48.311
scf7180000003433_nd_1272700_4949494,2714459,6,48.176
scf7180000003433_nd_1272700_4949494,2096249,6,49.214
scf7180000003433_nd_1272700_4949494,2091231,6,49.265
scf7180000003433_nd_1272700_4949494,2089789,6,49.21
scf7180000003433_nd_1272700_4949494,1977025,6,49.818
scf7180000003433_nd_1272700_4949494,1819975,6,49.818
scf7180000003433_nd_1272700_4949494,1648689,6,50.072
scf7180000003433_nd_1272700_4949494,1580483,6,50.109
scf7180000003433_nd_1272700_4949494,1410560,6,50.416
scf7180000003433_nd_1272700_4949494,1352577,6,50.423
scf7180000003433_nd_1272700_4949494,1308087,6,50.416
scf7180000003433_nd_1272700_4949494,956009,6,51.027
scf7180000003433_nd_1272700_4949494,467015,6,52.56
scf7180000003433_nd_1272700_4949494,149838,6,52.602
scf7180000003485_nd_300_1678601,134284,6,52.56
scf7180000003485_nd_300_1678601,225920,6,53.172
scf7180000003485_nd_300_1678601,246334,6,53.483
scf7180000003485_nd_300_1678601,313198,6,54.705
scf7180000003485_nd_300_1678601,1016673,6,56.573
scf7180000003485_nd_300_1678601,1018629,6,56.45
scf7180000003485_nd_300_1678601,1297110,6,56.754
scf7180000003485_nd_300_1678601,1414956,6,56.754
scf7180000003485_nd_300_1678601,1632893,6,57.367
scf7180000003485_nd_300_1678601,1653810,6,57.664
scf7180000003483_nd_0_985783,803015,6,58.563
scf7180000003483_nd_0_985783,710783,6,58.865
scf7180000003483_nd_0_985783,458546,6,59.769
scf7180000003483_nd_0_985783,439429,6,60.071
scf7180000003483_nd_0_985783,393234,6,60.375
scf7180000004560_nd_58300_7373400_1::scf7180000004560_nd_58300_7373400:1-3901588,3754975,6,60.973
scf7180000004560_nd_58300_7373400_1::scf7180000004560_nd_58300_7373400:1-3901588,3518901,6,61.575
scf7180000004560_nd_58300_7373400_1::scf7180000004560_nd_58300_7373400:1-3901588,3472260,6,62.282
scf7180000004560_nd_58300_7373400_1::scf7180000004560_nd_58300_7373400:1-3901588,3337032,6,62.174
scf7180000004560_nd_58300_7373400_1::scf7180000004560_nd_58300_7373400:1-3901588,3271819,6,62.492
scf7180000004560_nd_58300_7373400_1::scf7180000004560_nd_58300_7373400:1-3901588,3166537,6,63.398
scf7180000004560_nd_58300_7373400_1::scf7180000004560_nd_58300_7373400:1-3901588,2969996,6,64.313
scf7180000004560_nd_58300_7373400_1::scf7180000004560_nd_58300_7373400:1-3901588,2730255,6,65.692
scf7180000004560_nd_58300_7373400_1::scf7180000004560_nd_58300_7373400:1-3901588,2385387,6,68.404
scf7180000004560_nd_58300_7373400_1::scf7180000004560_nd_58300_7373400:1-3901588,2358332,6,68.722
scf7180000004560_nd_58300_7373400_1::scf7180000004560_nd_58300_7373400:1-3901588,2357744,6,68.701
scf7180000004560_nd_58300_7373400_1::scf7180000004560_nd_58300_7373400:1-3901588,2288218,6,68.73
scf7180000004560_nd_58300_7373400_1::scf7180000004560_nd_58300_7373400:1-3901588,2214973,6,68.722
scf7180000004560_nd_58300_7373400_1::scf7180000004560_nd_58300_7373400:1-3901588,2165687,6,69.648
scf7180000004560_nd_58300_7373400_1::scf7180000004560_nd_58300_7373400:1-3901588,2094363,6,70.245
scf7180000004560_nd_58300_7373400_1::scf7180000004560_nd_58300_7373400:1-3901588,1937107,6,70.866
scf7180000004560_nd_58300_7373400_1::scf7180000004560_nd_58300_7373400:1-3901588,1892839,6,70.866
scf7180000004560_nd_58300_7373400_1::scf7180000004560_nd_58300_7373400:1-3901588,1855052,6,71.483
scf7180000004560_nd_58300_7373400_1::scf7180000004560_nd_58300_7373400:1-3901588,1583638,6,72.751
scf7180000004560_nd_58300_7373400_1::scf7180000004560_nd_58300_7373400:1-3901588,1499664,6,72.705
scf7180000004560_nd_58300_7373400_1::scf7180000004560_nd_58300_7373400:1-3901588,1427700,6,72.705
scf7180000004560_nd_58300_7373400_1::scf7180000004560_nd_58300_7373400:1-3901588,1212060,6,73.719
scf7180000004560_nd_58300_7373400_1::scf7180000004560_nd_58300_7373400:1-3901588,1185229,6,73.635
scf7180000004560_nd_58300_7373400_1::scf7180000004560_nd_58300_7373400:1-3901588,1136303,6,73.988
scf7180000004560_nd_58300_7373400_1::scf7180000004560_nd_58300_7373400:1-3901588,1109329,6,74.601
scf7180000004560_nd_58300_7373400_1::scf7180000004560_nd_58300_7373400:1-3901588,1037494,6,75.826
scf7180000004560_nd_58300_7373400_1::scf7180000004560_nd_58300_7373400:1-3901588,988928,6,75.824
scf7180000004560_nd_58300_7373400_1::scf7180000004560_nd_58300_7373400:1-3901588,981104,6,75.892
scf7180000004560_nd_58300_7373400_1::scf7180000004560_nd_58300_7373400:1-3901588,747550,6,76.443
scf7180000004560_nd_58300_7373400_1::scf7180000004560_nd_58300_7373400:1-3901588,349535,6,76.744
scf7180000004560_nd_58300_7373400_1::scf7180000004560_nd_58300_7373400:1-3901588,337458,6,77.052
scf7180000003382_nd_500_2628700,185087,6,77.656
scf7180000003382_nd_500_2628700,395990,6,77.963
scf7180000003382_nd_500_2628700,415058,6,77.961
scf7180000003382_nd_500_2628700,547215,6,77.964
scf7180000003382_nd_500_2628700,568490,6,78.26
scf7180000003382_nd_500_2628700,589271,6,78.256
scf7180000003382_nd_500_2628700,704371,6,78.87
scf7180000003382_nd_500_2628700,733837,6,79.177
scf7180000003382_nd_500_2628700,1306715,6,81.312
scf7180000003382_nd_500_2628700,1358875,6,81.317
scf7180000003382_nd_500_2628700,1373704,6,81.313
scf7180000003382_nd_500_2628700,1424348,6,81.322
scf7180000003382_nd_500_2628700,1700598,6,83.151
scf7180000003382_nd_500_2628700,1787226,6,83.461
scf7180000003382_nd_500_2628700,1792124,6,83.457
scf7180000003382_nd_500_2628700,2293361,6,84.993
scf7180000003382_nd_500_2628700,2401408,6,85.348
scf7180000003382_nd_500_2628700,2404270,6,85.286
scf7180000003382_nd_500_2628700,2459212,6,86.205
scf7180000004523_nd_200_2072700,9032,6,86.9
scf7180000004523_nd_200_2072700,554064,6,88.918
scf7180000004523_nd_200_2072700,555349,6,88.918
scf7180000004523_nd_200_2072700,608045,6,88.869
scf7180000004523_nd_200_2072700,698527,6,89.518
scf7180000004523_nd_200_2072700,793195,6,89.823
scf7180000004523_nd_200_2072700,1049005,6,89.948
scf7180000004523_nd_200_2072700,1244440,6,90.127
scf7180000004523_nd_200_2072700,1577105,6,92.835
scf7180000004523_nd_200_2072700,1735358,10,57.01
scf7180000004523_nd_200_2072700,1860774,6,93.08
scf7180000003396_nd_6300_2921300,1324124,6,93.908
scf7180000003396_nd_6300_2921300,1259230,6,94.911
scf7180000003396_nd_6300_2921300,1223627,6,94.911
scf7180000003396_nd_6300_2921300,1215009,6,94.918
scf7180000003396_nd_6300_2921300,1051541,6,95.51
scf7180000003396_nd_6300_2921300,515541,6,97.601
scf7180000003396_nd_6300_2921300,662220,6,97.582
scf7180000003396_nd_6300_2921300,481753,6,97.567
scf7180000003396_nd_6300_2921300,295908,6,97.878
scf7180000003396_nd_6300_2921300,157651,6,98.174
scf7180000003582_nd_0_76900,13837,6,98.181
scf7180000003582_nd_77100_1987690,530248,6,99.365
scf7180000003582_nd_77100_1987690,688614,6,99.564
scf7180000003582_nd_77100_1987690,751856,6,99.651
scf7180000003582_nd_77100_1987690,1086920,6,99.651
scf7180000003582_nd_77100_1987690,943856,6,99.649
scf7180000003582_nd_77100_1987690,1518808,6,99.66
scf7180000003582_nd_77100_1987690,1612945,6,99.597
scf7180000003562_nd_0_1807400,198442,6,99.727
scf7180000003562_nd_0_1807400,1080373,6,99.946
scf7180000003562_nd_0_1807400,1148148,6,100.535
scf7180000003562_nd_0_1807400,1211163,6,100.83
scf7180000003562_nd_0_1807400,1417582,6,101.696
scf7180000003562_nd_0_1807400,1449343,6,101.685
scf7180000003807_nd_5500_355324,44487,6,102.262
scf7180000003558_nd_31800_499500,197420,6,102.219
scf7180000003558_nd_31800_499500,192490,6,102.096
scf7180000003558_nd_31800_499500,131728,6,102.274
scf7180000003996_nd_100_424222,224826,6,102.567
scf7180000003996_nd_100_424222,339101,6,102.84
scf7180000003996_nd_100_424222,364163,6,102.856
scf7180000003700_nd_65600_751400,86919,7,0.005
scf7180000003700_nd_65600_751400,446268,7,0
scf7180000003322_nd_4522400_6449300,355011,7,0.298
scf7180000003322_nd_4522400_6449300,998955,7,0.269
scf7180000003322_nd_4522400_6449300,592928,7,0.276
scf7180000003322_nd_4522400_6449300,1479349,7,0.221
scf7180000003322_nd_4522400_6449300,1493283,7,0.269
scf7180000003322_nd_4522400_6449300,1381130,7,0.547
scf7180000003322_nd_4522400_6449300,1856634,7,0.271
scf7180000003322_nd_6457800_6965600,156155,7,0.345
scf7180000003322_nd_6457800_6965600,251827,7,0.198
scf7180000004555_nd_100_342000,217463,7,0.864
scf7180000003648_nd_0_1371100,1042827,7,1.43
scf7180000003615_nd_500_2137500,1356783,7,2.017
scf7180000003615_nd_500_2137500,1133155,7,2.606
scf7180000003615_nd_500_2137500,245432,7,3.19
scf7180000003491_nd_1100_536300,232334,7,11.022
scf7180000003491_nd_1100_536300,49967,7,10.439
scf7180000003713_nd_100_183102,65589,7,10.144
scf7180000003713_nd_100_183102,118996,7,10.144
scf7180000003294_nd_353400_3003300,101446,7,4.073
scf7180000004551_nd_425900_524500,60269,7,5.34
scf7180000003655_nd_26127500_27237600,7362,7,5.086
scf7180000003921_nd_100_89441,6368,7,5.197
scf7180000003655_nd_24344700_26126900,1460957,7,5.197
scf7180000003655_nd_24344700_26126900,1460438,7,5.203
scf7180000003655_nd_24344700_26126900,1062286,7,5.258
scf7180000003655_nd_24344700_26126900,995447,7,5.229
scf7180000003655_nd_24344700_26126900,991600,7,5.267
scf7180000003655_nd_21297700_24337500,2547085,7,5.197
scf7180000003331_nd_3606900_4942200,1087760,7,5.155
scf7180000003331_nd_3606900_4942200,1070717,7,5.292
scf7180000003331_nd_3606900_4942200,112218,7,5.198
scf7180000003331_nd_2816500_3605600,249013,7,5.756
scf7180000003331_nd_2816500_3605600,218132,7,6.054
scf7180000003331_nd_2387200_2675900,282219,7,6.621
scf7180000004519_nd_1899100_12716031,3007827,2,26.18
scf7180000003331_nd_200_1356400,811302,7,6.638
scf7180000003331_nd_200_1356400,792314,7,6.931
scf7180000003331_nd_200_1356400,777646,7,6.889
scf7180000003331_nd_200_1356400,609788,7,7.117
scf7180000003331_nd_200_1356400,38845,7,7.514
scf7180000004029_nd_433900_667636,41690,7,7.516
scf7180000004029_nd_433900_667636,115061,7,7.509
scf7180000003579_nd_0_467300,369863,7,7.506
scf7180000003579_nd_0_467300,294586,7,7.473
scf7180000003474_nd_620900_1912000,409430,7,8.69
scf7180000003474_nd_620900_1912000,828731,7,8.965
scf7180000003702_nd_10500_3267600,2668369,7,9.259
scf7180000003702_nd_10500_3267600,2337655,7,9.23
scf7180000003702_nd_10500_3267600,2331735,7,9.257
scf7180000004521_nd_30100_926900,822212,7,19.885
scf7180000003292_nd_10561500_11204700,16514,7,11.281
scf7180000003292_nd_10561500_11204700,500547,7,11.282
scf7180000003292_nd_8022200_10561400,998426,7,11.575
scf7180000003292_nd_8022200_10561400,860743,7,11.558
scf7180000003292_nd_8022200_10561400,713594,7,11.87
scf7180000003292_nd_8022200_10561400,579757,7,12.174
scf7180000003292_nd_8022200_10561400,441092,7,12.164
scf7180000003292_nd_8022200_10561400,439001,7,12.164
scf7180000003292_nd_8022200_10561400,424195,7,12.218
scf7180000003292_nd_8022200_10561400,361465,7,12.458
scf7180000003292_nd_8022200_10561400,161995,7,12.753
scf7180000003292_nd_7279800_7710100,307568,7,13.048
scf7180000003292_nd_7279800_7710100,10941,7,13.048
scf7180000003292_nd_4224000_7279700,2707256,7,13.051
scf7180000003292_nd_4224000_7279700,1568225,7,14.517
scf7180000003292_nd_4224000_7279700,1451645,7,14.647
scf7180000003292_nd_4224000_7279700,1385030,7,14.812
scf7180000003292_nd_4224000_7279700,1332014,7,15.074
scf7180000003315_nd_42100_4407600,1561336,7,15.672
scf7180000003292_nd_4224000_7279700,1081164,7,16.845
scf7180000003292_nd_4224000_7279700,797646,7,18.627
scf7180000003292_nd_4224000_7279700,531787,7,18.59
scf7180000003292_nd_4224000_7279700,332240,7,18.611
scf7180000003292_nd_4224000_7279700,239621,7,18.624
scf7180000003506_nd_500_428200,357278,7,18.913
scf7180000004521_nd_30100_926900,866675,7,19.796
scf7180000004521_nd_30100_926900,792721,7,19.796
scf7180000004521_nd_30100_926900,635827,7,20.704
scf7180000004521_nd_30100_926900,303760,7,22.217
scf7180000003606_nd_0_2036800,1650768,7,23.324
scf7180000003606_nd_0_2036800,1553640,7,23.312
scf7180000003778_nd_0_886145,433930,7,24.58
scf7180000003606_nd_0_2036800,321297,7,25.128
scf7180000003606_nd_0_2036800,146930,7,27.61
scf7180000003577_nd_612400_3036400,276965,7,29.177
scf7180000003577_nd_612400_3036400,308732,7,29.177
scf7180000003577_nd_612400_3036400,452142,7,31.687
scf7180000003577_nd_612400_3036400,665783,7,32.931
scf7180000003577_nd_612400_3036400,666170,7,32.974
scf7180000003577_nd_612400_3036400,746127,7,33.592
scf7180000003577_nd_612400_3036400,759722,7,33.562
scf7180000003577_nd_612400_3036400,795592,7,33.656
scf7180000003577_nd_612400_3036400,804667,7,34.076
scf7180000003577_nd_612400_3036400,917351,7,35.638
scf7180000003577_nd_612400_3036400,930580,7,35.638
scf7180000003577_nd_612400_3036400,1299969,7,36.259
scf7180000003577_nd_612400_3036400,1433570,7,37.187
scf7180000003577_nd_612400_3036400,1488546,7,37.83
scf7180000003577_nd_612400_3036400,1670426,7,40.107
scf7180000003577_nd_612400_3036400,1915980,7,39.975
scf7180000003577_nd_612400_3036400,1967365,7,40.107
scf7180000003577_nd_612400_3036400,2087274,7,40.421
scf7180000003577_nd_612400_3036400,2257184,7,40.417
scf7180000003577_nd_612400_3036400,2303714,7,40.588
scf7180000003577_nd_3036500_3948500,37050,7,40.924
scf7180000004562_nd_2018200_4464500,1308894,7,49.125
scf7180000004562_nd_2018200_4464500,1372294,7,49.106
scf7180000004562_nd_2018200_4464500,1490483,7,48.52
scf7180000004562_nd_2018200_4464500,1520960,7,48.52
scf7180000004562_nd_2018200_4464500,1525184,7,48.525
scf7180000004562_nd_2018200_4464500,1809840,7,47.844
scf7180000004562_nd_2018200_4464500,1827556,7,47.769
scf7180000004562_nd_2018200_4464500,1916026,7,47.178
scf7180000004562_nd_2018200_4464500,2087335,7,45.988
scf7180000004562_nd_2018200_4464500,2167406,7,45.988
scf7180000004562_nd_2018200_4464500,2318537,7,45.934
scf7180000003577_nd_3036500_3948500,851967,7,45.931
scf7180000004562_nd_2018200_4464500,1294140,7,49.127
scf7180000004562_nd_2018200_4464500,1027933,7,50.573
scf7180000004562_nd_2018200_4464500,991202,7,50.585
scf7180000004562_nd_2018200_4464500,680699,7,50.628
scf7180000004562_nd_2018200_4464500,385378,7,51.755
scf7180000004562_nd_2018200_4464500,96325,7,52.052
scf7180000004562_nd_0_2014300,1652527,7,51.909
scf7180000004562_nd_0_2014300,1338348,7,53.504
scf7180000004562_nd_0_2014300,1273218,8,41.111
scf7180000003331_nd_200_1356400,816918,7,56.444
scf7180000004562_nd_0_2014300,538277,7,56.536
scf7180000004562_nd_0_2014300,298090,7,57.653
scf7180000003638_nd_0_1298800,17386,7,58.242
scf7180000003638_nd_0_1298800,22106,7,58.242
scf7180000003638_nd_0_1298800,133834,7,59.708
scf7180000003638_nd_0_1298800,203301,7,59.708
scf7180000003638_nd_0_1298800,343682,7,59.713
scf7180000003638_nd_0_1298800,431718,7,59.647
scf7180000003638_nd_0_1298800,633620,7,60.002
scf7180000003638_nd_0_1298800,728523,7,60.033
scf7180000003607_nd_2895700_3274608,46092,7,61.25
scf7180000003607_nd_2895700_3274608,314054,7,61.276
scf7180000003591_nd_2800_5056100,3774678,8,5.173
scf7180000003591_nd_2800_5056100,3767964,8,5.203
scf7180000003591_nd_2800_5056100,3718314,8,0
scf7180000003591_nd_2800_5056100,3664229,8,6.065
scf7180000003591_nd_2800_5056100,3353755,2,12.495
scf7180000003591_nd_2800_5056100,3256628,8,8.413
scf7180000003591_nd_2800_5056100,3184683,8,8.69
scf7180000003591_nd_2800_5056100,3098064,8,8.836
scf7180000003591_nd_2800_5056100,3004314,8,9.236
scf7180000003591_nd_2800_5056100,2731559,8,12.278
scf7180000003591_nd_2800_5056100,2452755,8,12.879
scf7180000003591_nd_2800_5056100,2442831,8,12.879
scf7180000003591_nd_2800_5056100,2297074,8,12.921
scf7180000003917_nd_0_47800,21224,8,13.262
scf7180000003392_nd_29300_2469600,1055768,8,4.41
scf7180000003392_nd_29300_2469600,987562,8,4.41
scf7180000003392_nd_29300_2469600,580348,10,56.952
scf7180000003392_nd_29300_2469600,578385,10,56.976
scf7180000004013_nd_0_387800,123714,8,13.178
scf7180000004013_nd_0_387800,150482,8,13.176
scf7180000003751_nd_2800_683108,539687,8,17.708
scf7180000003751_nd_2800_683108,484674,8,19.205
scf7180000003751_nd_2800_683108,245352,8,19.8
scf7180000004540_nd_5820100_7974000,285068,8,20.412
scf7180000004540_nd_5820100_7974000,1766959,8,23.163
scf7180000004540_nd_5820100_7974000,1804208,8,23.469
scf7180000004540_nd_5820100_7974000,1866622,8,23.32
scf7180000004540_nd_5820100_7974000,2111561,8,24.302
scf7180000004540_nd_7974100_11127900,144981,8,25.905
scf7180000004540_nd_7974100_11127900,273179,8,25.905
scf7180000003433_nd_300_1272200,1175606,6,10.163
scf7180000003819_nd_472400_928200,449940,6,10.118
scf7180000004540_nd_7974100_11127900,596856,8,26.825
scf7180000004540_nd_7974100_11127900,638539,8,27.13
scf7180000004540_nd_7974100_11127900,824956,8,28.364
scf7180000004540_nd_7974100_11127900,975812,8,28.699
scf7180000004540_nd_7974100_11127900,1018990,8,28.364
scf7180000004540_nd_7974100_11127900,2251652,8,33.577
scf7180000004540_nd_7974100_11127900,2431560,8,33.943
scf7180000004540_nd_7974100_11127900,2634395,8,34.481
scf7180000004540_nd_7974100_11127900,2659043,8,34.673
scf7180000004540_nd_7974100_11127900,2708695,8,34.472
scf7180000004540_nd_7974100_11127900,2790131,8,34.481
scf7180000004540_nd_7974100_11127900,3097933,8,34.779
scf7180000003360_nd_900_3028600,1356970,8,47.172
scf7180000003360_nd_900_3028600,1058080,8,46.622
scf7180000003360_nd_900_3028600,1029406,8,44.453
scf7180000003360_nd_900_3028600,943740,8,44.446
scf7180000003360_nd_900_3028600,939159,8,44.453
scf7180000003360_nd_900_3028600,775298,8,42.913
scf7180000003360_nd_900_3028600,760478,8,42.922
scf7180000004559_nd_955100_4584400,1826770,8,41.422
scf7180000004559_nd_955100_4584400,921953,8,39.607
scf7180000004559_nd_955100_4584400,865534,8,38.678
scf7180000004559_nd_955100_4584400,840121,8,38.372
scf7180000004559_nd_955100_4584400,760302,8,37.446
scf7180000004559_nd_955100_4584400,748922,8,37.13
scf7180000004559_nd_955100_4584400,86360,8,35.163
scf7180000003637_nd_274100_659200,17579,8,35.085
scf7180000004540_nd_11128600_11586400,151202,8,35.186
scf7180000004540_nd_11128600_11586400,63847,8,34.863
scf7180000004540_nd_11128600_11586400,55210,8,34.796
scf7180000003397_nd_0_233900,128884,8,49.717
scf7180000003875_nd_500_324683,127951,8,49.839
scf7180000003875_nd_500_324683,149979,8,49.769
scf7180000003482_nd_599100_2627500,344177,1,4.4
scf7180000003482_nd_599100_2627500,599166,1,4.387
scf7180000003360_nd_900_3028600,1646034,8,48.091
scf7180000003360_nd_900_3028600,2047408,8,48.326
scf7180000003360_nd_900_3028600,2189001,8,48.618
scf7180000003419_nd_463100_472700,8704,8,48.79
scf7180000003360_nd_900_3028600,2258665,8,48.618
scf7180000003360_nd_900_3028600,2715798,8,49.71
scf7180000003360_nd_900_3028600,2772308,8,49.769
scf7180000003360_nd_900_3028600,2828560,8,49.756
scf7180000003360_nd_900_3028600,2835403,8,49.762
scf7180000003561_nd_8300_1102300,488960,8,51.245
scf7180000003561_nd_8300_1102300,847675,8,51.448
scf7180000003561_nd_8300_1102300,875819,8,51.489
scf7180000003452_nd_9800_2196500,1155203,8,51.768
scf7180000003452_nd_9800_2196500,938125,8,52.068
scf7180000003452_nd_9800_2196500,675422,8,52.365
scf7180000003452_nd_9800_2196500,615203,8,52.663
scf7180000003503_nd_11400_3791600,2684936,8,53.613
scf7180000003503_nd_11400_3791600,2651342,8,54.157
scf7180000003503_nd_11400_3791600,2543225,8,54.374
scf7180000003617_nd_0_848700,635615,8,56.927
scf7180000003328_nd_1100_404200,105094,8,58.088
scf7180000003291_nd_500_1323400,609272,8,58.399
scf7180000003291_nd_500_1323400,598652,8,58.51
scf7180000003291_nd_500_1323400,435815,8,58.357
scf7180000003291_nd_500_1323400,197258,8,58.402
scf7180000003325_nd_388200_539500,138933,8,58.402
scf7180000003325_nd_388200_539500,138914,8,58.397
scf7180000003289_nd_3600_3662500,784735,8,58.986
scf7180000003289_nd_3600_3662500,2049209,8,59.277
scf7180000003289_nd_3600_3662500,2175698,8,59.52
scf7180000003289_nd_3600_3662500,2718043,8,80.225
scf7180000003289_nd_3600_3662500,3284452,8,59.572
scf7180000003320_nd_982300_7281700,409532,8,60.577
scf7180000003320_nd_982300_7281700,563945,8,60.445
scf7180000003320_nd_982300_7281700,595783,8,60.448
scf7180000003320_nd_982300_7281700,741862,8,60.445
scf7180000003320_nd_982300_7281700,781836,8,61.029
scf7180000003320_nd_982300_7281700,1313189,8,61.029
scf7180000003320_nd_982300_7281700,1341918,8,61.075
scf7180000003320_nd_982300_7281700,1745416,8,60.979
scf7180000003320_nd_982300_7281700,2119401,8,61.321
scf7180000003320_nd_982300_7281700,2487898,8,62.248
scf7180000003320_nd_982300_7281700,2667816,8,62.21
scf7180000003320_nd_982300_7281700,2868593,8,62.191
scf7180000003320_nd_982300_7281700,2869351,8,62.286
scf7180000003320_nd_982300_7281700,2923187,8,62.079
scf7180000003320_nd_982300_7281700,3148542,8,62.429
scf7180000003320_nd_982300_7281700,3999854,8,63.313
scf7180000003320_nd_982300_7281700,4178216,8,63.373
scf7180000003320_nd_982300_7281700,4182395,8,63.316
scf7180000003320_nd_982300_7281700,4676243,8,63.37
scf7180000003320_nd_982300_7281700,4939258,8,63.878
scf7180000003823_nd_6400_1225700,309543,8,91.658
scf7180000003823_nd_6400_1225700,335119,8,91.554
scf7180000003823_nd_6400_1225700,505135,8,92.69
scf7180000003823_nd_6400_1225700,510319,8,92.783
scf7180000003823_nd_6400_1225700,850268,8,94.009
scf7180000003823_nd_6400_1225700,793362,8,94.26
scf7180000003823_nd_6400_1225700,1155591,8,94.025
scf7180000003788_nd_17200_469100,341226,8,94.667
scf7180000003788_nd_17200_469100,178660,8,97.111
scf7180000003320_nd_982300_7281700,5781592,8,65.05
scf7180000003320_nd_982300_7281700,5955819,8,65.483
scf7180000003320_nd_7282500_11670800,666535,8,67.45
scf7180000003320_nd_7282500_11670800,781619,8,67.471
scf7180000003320_nd_7282500_11670800,1830218,8,67.45
scf7180000003320_nd_7282500_11670800,2036198,8,67.766
scf7180000003320_nd_7282500_11670800,3242875,8,69.282
scf7180000003320_nd_7282500_11670800,3321262,8,69.436
scf7180000003320_nd_7282500_11670800,3720794,8,70.196
scf7180000004564_nd_2975400_6912400,3798098,8,71.399
scf7180000004560_nd_58300_7373400_2::scf7180000004560_nd_58300_7373400:3902187-7315100,815288,7,7.236
scf7180000004564_nd_2975400_6912400,3259508,8,71.419
scf7180000004564_nd_2975400_6912400,3631032,8,71.419
scf7180000004564_nd_2975400_6912400,2652351,8,71.683
scf7180000004564_nd_2975400_6912400,2451538,8,72.611
scf7180000004564_nd_2975400_6912400,2444527,8,72.611
scf7180000004564_nd_2975400_6912400,2303545,8,72.616
scf7180000004564_nd_2975400_6912400,2164400,8,72.619
scf7180000004564_nd_2975400_6912400,1506952,8,74.444
scf7180000004564_nd_2975400_6912400,730449,8,76.561
scf7180000004564_nd_2975400_6912400,722977,8,76.569
scf7180000004564_nd_2975400_6912400,564423,8,77.789
scf7180000004564_nd_2975400_6912400,167752,8,78.734
scf7180000003360_nd_3030100_3750200,194199,8,78.484
scf7180000004564_nd_2975400_6912400,53826,8,78.668
scf7180000004564_nd_2975400_6912400,2898,8,78.712
scf7180000004564_nd_7700_2975300,2876796,8,79.334
scf7180000004564_nd_7700_2975300,2866983,8,79.634
scf7180000004564_nd_7700_2975300,2798674,8,79.92
scf7180000004564_nd_7700_2975300,2591243,8,80.567
scf7180000004564_nd_7700_2975300,2586301,8,80.586
scf7180000004564_nd_7700_2975300,1647241,8,80.842
scf7180000004564_nd_7700_2975300,1583052,8,80.903
scf7180000004564_nd_7700_2975300,850865,8,81.46
scf7180000004564_nd_7700_2975300,846989,8,81.448
scf7180000003655_nd_21297700_24337500,1967390,8,81.382
scf7180000004564_nd_7700_2975300,753520,8,81.572
scf7180000003346_nd_300_1831100,194759,8,82.987
scf7180000003346_nd_300_1831100,1002780,8,85.092
scf7180000003346_nd_300_1831100,1058980,8,85.398
scf7180000003346_nd_300_1831100,1775957,8,90.984
scf7180000004571_nd_9800_1134827,900708,8,91.608
scf7180000004571_nd_9800_1134827,862629,8,91.562
scf7180000004571_nd_9800_1134827,854048,8,91.399
scf7180000004571_nd_9800_1134827,77089,8,91.557
scf7180000004571_nd_9800_1134827,84731,8,91.554
scf7180000003298_nd_0_3685417,357140,8,100.484
scf7180000003298_nd_0_3685417,754042,8,101.398
scf7180000003298_nd_0_3685417,870464,8,102.007
scf7180000004518_nd_5828800_9187500,1362227,8,102.837
scf7180000003426_nd_296800_1717800,220437,8,104.408
scf7180000003298_nd_0_3685417,1663031,8,104.705
scf7180000003298_nd_0_3685417,2301410,8,107.096
scf7180000003298_nd_0_3685417,2306868,8,107.103
scf7180000003298_nd_0_3685417,3521828,8,107.994
scf7180000003298_nd_0_3685417,3536465,8,107.968
scf7180000003298_nd_0_3685417,3553214,8,107.968
scf7180000003298_nd_0_3685417,3593908,8,108.264
scf7180000003998_nd_0_209900,50850,8,108.283
scf7180000003488_nd_6600_1322300,1175750,8,108.264
scf7180000003936_ld_64400_67956,2199,8,108.852
scf7180000003292_nd_4224000_7279700,2172716,7,13.641
scf7180000004566_nd_23800_2154900,2002839,8,110.918
scf7180000004566_nd_23800_2154900,1078463,8,109.437
scf7180000004566_nd_23800_2154900,389956,8,109.15
scf7180000003297_nd_518700_3104885,2355519,9,0.048
scf7180000003297_nd_518700_3104885,2345320,9,0.048
scf7180000003297_nd_518700_3104885,2313430,9,0
scf7180000003297_nd_518700_3104885,1372600,9,1.169
scf7180000003297_nd_518700_3104885,560970,9,1.516
scf7180000003297_nd_518700_3104885,528896,9,1.481
scf7180000003347_nd_100_411400,225265,9,2.15
scf7180000003347_nd_100_411400,261999,9,2.14
scf7180000004560_nd_11803200_12244200,212252,9,2.15
scf7180000004560_nd_8522100_11801600,3141323,9,2.426
scf7180000004560_nd_8522100_11801600,3092239,9,2.4
scf7180000004560_nd_8522100_11801600,2857860,9,2.047
scf7180000004560_nd_8522100_11801600,2393853,9,2.426
scf7180000004560_nd_8522100_11801600,2142642,9,2.418
scf7180000004560_nd_8522100_11801600,299446,9,5.02
scf7180000004560_nd_8522100_11801600,173589,9,5.024
scf7180000004560_nd_8522100_11801600,202556,9,5.021
scf7180000003490_nd_2000_1234100,554828,9,5.012
scf7180000003490_nd_2000_1234100,408823,9,5.024
scf7180000003490_nd_2000_1234100,126159,9,5.021
scf7180000003382_nd_2629400_3609800,884980,9,5.632
scf7180000003382_nd_2629400_3609800,876814,9,5.664
scf7180000003382_nd_2629400_3609800,466434,9,6.191
scf7180000003382_nd_2629400_3609800,343610,9,6.193
scf7180000003414_nd_700_1328700,1257636,9,7.599
scf7180000003414_nd_700_1328700,507444,9,7.067
scf7180000003414_nd_700_1328700,595481,9,7.052
scf7180000003414_nd_700_1328700,661015,9,7.638
scf7180000004545_nd_200_1159500,287128,9,7.931
scf7180000004545_nd_200_1159500,646672,9,8.809
scf7180000004545_nd_200_1159500,694127,9,8.721
scf7180000004545_nd_1160000_2879800,555880,9,9.496
scf7180000004545_nd_1160000_2879800,1562564,9,10.88
scf7180000004545_nd_1160000_2879800,1676109,9,10.88
scf7180000004545_nd_1160000_2879800,1677763,9,10.892
scf7180000004518_nd_25900_5828300,614195,9,11.466
scf7180000004518_nd_25900_5828300,654517,9,11.493
scf7180000004518_nd_25900_5828300,830148,9,11.466
scf7180000004518_nd_25900_5828300,2648139,9,11.75
scf7180000004518_nd_25900_5828300,2885017,9,12.044
scf7180000004518_nd_25900_5828300,3240748,9,12.383
scf7180000004518_nd_25900_5828300,3465143,9,13.234
scf7180000004518_nd_25900_5828300,3591269,9,13.225
scf7180000004518_nd_25900_5828300,5151428,9,14.433
scf7180000004520_nd_500_2088800,4858,9,14.481
scf7180000004520_nd_500_2088800,532444,9,20.754
scf7180000004520_nd_500_2088800,1256011,9,22.635
scf7180000004520_nd_500_2088800,1264037,9,22.624
scf7180000004520_nd_500_2088800,1640226,9,26.521
scf7180000004520_nd_500_2088800,1659857,9,26.502
scf7180000004520_nd_500_2088800,1680155,9,26.573
scf7180000003389_nd_13300_1233900,185371,9,35.733
scf7180000003389_nd_13300_1233900,397432,9,36.314
scf7180000003389_nd_13300_1233900,557197,9,37.573
scf7180000004355_nd_0_3562000,955658,9,43.339
scf7180000004355_nd_0_3562000,1042888,9,43.703
scf7180000004355_nd_0_3562000,1109285,9,43.649
scf7180000004355_nd_0_3562000,1191998,9,45.766
scf7180000004355_nd_0_3562000,1212322,9,45.902
scf7180000004355_nd_0_3562000,1428949,9,47.321
scf7180000004355_nd_0_3562000,1926092,9,48.448
scf7180000004355_nd_0_3562000,1930205,9,48.486
scf7180000004355_nd_0_3562000,1932268,9,48.448
scf7180000004355_nd_0_3562000,2565848,9,50.128
scf7180000004355_nd_0_3562000,2590697,9,50.128
scf7180000004355_nd_0_3562000,3096130,9,50.711
scf7180000004355_nd_0_3562000,3121874,9,50.711
scf7180000004355_nd_0_3562000,3159232,9,51.004
scf7180000004525_nd_20500_4668100,4544232,9,55.323
scf7180000004525_nd_20500_4668100,3722419,9,56.492
scf7180000004525_nd_20500_4668100,3628397,9,57.614
scf7180000004525_nd_20500_4668100,3563281,9,57.614
scf7180000004525_nd_20500_4668100,3470747,9,58.345
scf7180000004525_nd_20500_4668100,3118869,9,58.49
scf7180000004525_nd_20500_4668100,3098905,9,58.492
scf7180000004525_nd_20500_4668100,2982928,9,58.781
scf7180000004525_nd_20500_4668100,2938748,9,58.781
scf7180000004525_nd_20500_4668100,2769631,9,59.072
scf7180000004525_nd_20500_4668100,2172114,9,59.931
scf7180000004525_nd_20500_4668100,2021786,9,60.739
scf7180000004525_nd_20500_4668100,1992972,9,60.743
scf7180000004525_nd_20500_4668100,1602230,9,61.037
scf7180000004525_nd_20500_4668100,1568067,9,61.32
scf7180000004525_nd_20500_4668100,1487098,9,61.32
scf7180000004555_nd_100_342000,248038,9,62.788
scf7180000004555_nd_100_342000,209067,9,62.56
scf7180000003810_nd_10300_2070100,1854238,9,63.971
scf7180000003810_nd_10300_2070100,1098911,9,65.714
scf7180000003810_nd_10300_2070100,1038365,9,65.733
scf7180000003810_nd_10300_2070100,960011,9,66.031
scf7180000003810_nd_10300_2070100,446937,9,68.084
scf7180000003848_nd_0_163688,57719,9,68.397
scf7180000003848_nd_0_163688,48991,9,68.675
scf7180000003937_nd_2200_745310,444747,10,0.002
scf7180000003937_nd_2200_745310,436838,10,0
scf7180000003937_nd_2200_745310,436695,10,0.016
scf7180000003937_nd_2200_745310,354881,10,0.31
scf7180000003937_nd_2200_745310,19637,10,0.602
scf7180000003337_nd_30800_1203500,120661,10,0.632
scf7180000003337_nd_30800_1203500,186021,10,0.602
scf7180000003337_nd_30800_1203500,847759,10,1.193
scf7180000003337_nd_30800_1203500,964165,10,1.894
scf7180000003337_nd_30800_1203500,1075775,10,2.286
scf7180000003337_nd_30800_1203500,1092293,10,2.592
scf7180000003337_nd_30800_1203500,1163258,10,2.603
scf7180000003337_nd_1203800_2001000,110302,10,3.326
scf7180000003337_nd_1203800_2001000,184638,10,3.374
scf7180000003337_nd_1203800_2001000,223459,10,4.198
scf7180000003337_nd_1203800_2001000,425459,10,5.36
scf7180000003337_nd_1203800_2001000,460021,10,5.651
scf7180000003337_nd_1203800_2001000,509690,10,5.651
scf7180000003809_nd_0_548100,89294,10,5.943
scf7180000003809_nd_0_548100,215777,10,5.943
scf7180000003809_nd_0_548100,249794,10,5.997
scf7180000003809_nd_0_548100,291147,10,6.301
scf7180000003809_nd_0_548100,517370,10,6.821
scf7180000004552_nd_400_666079,382386,10,7.408
scf7180000004552_nd_400_666079,325506,10,8.452
scf7180000004552_nd_400_666079,114472,10,9.101
scf7180000004552_nd_400_666079,114411,10,8.95
scf7180000004552_nd_400_666079,71413,10,8.928
scf7180000003536_nd_500_485600,80186,10,9.332
scf7180000003536_nd_492500_1070100,33034,10,9.948
scf7180000003655_nd_21297700_24337500,1795835,10,11.674
scf7180000003655_nd_21297700_24337500,1755239,10,11.854
scf7180000003655_nd_21297700_24337500,1124540,10,12.798
scf7180000003655_nd_21297700_24337500,630816,10,14.016
scf7180000003655_nd_18614600_21297600,2534076,10,15.373
scf7180000003655_nd_18614600_21297600,2053996,10,18.422
scf7180000003655_nd_18614600_21297600,1911817,10,19.546
scf7180000003655_nd_18614600_21297600,1797839,10,20.021
scf7180000003655_nd_18614600_21297600,1681494,10,20.92
scf7180000003655_nd_18614600_21297600,1665103,10,20.915
scf7180000003655_nd_18614600_21297600,1594498,10,20.926
scf7180000003655_nd_18614600_21297600,1550502,10,21.18
scf7180000003655_nd_18614600_21297600,1496784,10,21.273
scf7180000003655_nd_18614600_21297600,1307063,10,21.18
scf7180000004517_nd_1200_28500,4999,10,21.427
scf7180000004517_nd_1200_28500,1583,10,21.793
scf7180000003655_nd_18614600_21297600,604885,10,22.324
scf7180000003655_nd_18614600_21297600,569597,10,39.042
scf7180000003655_nd_18614600_21297600,63029,10,23.432
scf7180000003655_nd_14615200_18612500,3577234,10,24.34
scf7180000003655_nd_14615200_18612500,3371137,10,24.744
scf7180000003655_nd_14615200_18612500,3191932,10,25.756
scf7180000003655_nd_14615200_18612500,3051507,10,26.836
scf7180000003655_nd_14615200_18612500,2579172,10,28.025
scf7180000003655_nd_14615200_18612500,2093397,10,28.935
scf7180000003655_nd_14615200_18612500,2011455,10,29.239
scf7180000003655_nd_14615200_18612500,1983378,10,29.152
scf7180000003655_nd_14615200_18612500,1788137,10,29.844
scf7180000003655_nd_14615200_18612500,1465905,10,31.819
scf7180000003655_nd_14615200_18612500,1331581,10,32.745
scf7180000003655_nd_14615200_18612500,1130439,10,33.635
scf7180000003655_nd_14615200_18612500,812702,10,33.635
scf7180000003655_nd_14615200_18612500,524471,10,36.357
scf7180000003655_nd_9742600_14615100,4165388,10,38.442
scf7180000003655_nd_9742600_14615100,4319282,10,38.429
scf7180000003655_nd_9742600_14615100,4653762,10,38.446
scf7180000003655_nd_9742600_14615100,4720534,10,38.446
scf7180000003655_nd_9742600_14615100,4823779,10,37.26
scf7180000003488_nd_6600_1322300,387997,8,109.084
scf7180000003488_nd_6600_1322300,44800,8,109.164
scf7180000003655_nd_9742600_14615100,3160952,10,38.501
scf7180000003655_nd_9742600_14615100,1802780,10,38.392
scf7180000003655_nd_9742600_14615100,73217,10,39.64
scf7180000003655_nd_9742600_14615100,28450,10,40.407
scf7180000003655_nd_9742600_14615100,25971,10,40.499
scf7180000003655_nd_8899200_9742400,783628,10,41.107
scf7180000003655_nd_8899200_9742400,720134,10,41.693
scf7180000003388_ld_7100_16900,9173,10,41.993
scf7180000003655_nd_8899200_9742400,522437,10,42.286
scf7180000003655_nd_6436400_8742400,2084635,10,42.289
scf7180000003655_nd_6436400_8742400,2025671,10,42.289
scf7180000003655_nd_6436400_8742400,1932221,10,42.586
scf7180000003655_nd_6436400_8742400,1932180,10,42.62
scf7180000003655_nd_6436400_8742400,1684673,10,43.178
scf7180000003655_nd_6436400_8742400,1330956,10,43.477
scf7180000003655_nd_6436400_8742400,1310810,10,43.478
scf7180000003655_nd_6436400_8742400,1278856,10,43.477
scf7180000003655_nd_6436400_8742400,1061179,10,43.523
scf7180000003655_nd_6436400_8742400,753350,10,43.48
scf7180000003655_nd_770200_6351000,5276049,10,43.441
scf7180000003655_nd_770200_6351000,5087583,10,44.076
scf7180000004565_nd_4533700_6036077,594181,10,47.057
scf7180000004565_nd_4533700_6036077,288291,10,47.614
scf7180000004565_nd_4533700_6036077,89638,10,48.81
scf7180000004565_nd_4533700_6036077,88012,10,48.65
scf7180000004565_nd_3878400_4533100,118831,10,49.099
scf7180000004565_nd_616600_3857700,3000539,10,51.847
scf7180000004565_nd_616600_3857700,2985902,10,52.095
scf7180000004565_nd_616600_3857700,2292796,10,55.48
scf7180000004565_nd_616600_3857700,1805575,10,55.787
scf7180000004565_nd_616600_3857700,1765975,10,56.398
scf7180000004565_nd_616600_3857700,1517891,10,57.01
scf7180000004565_nd_616600_3857700,1146711,10,56.932
scf7180000004565_nd_616600_3857700,1103075,10,59.758
scf7180000004565_nd_616600_3857700,434270,10,62.218
scf7180000004565_nd_800_607600,254800,10,65.839
scf7180000004565_nd_800_607600,236826,10,65.848
scf7180000003292_nd_0_4222400,537517,10,65.839
scf7180000003292_nd_0_4222400,609564,10,66.119
scf7180000003292_nd_0_4222400,619284,10,66.112
scf7180000003292_nd_0_4222400,644796,10,66.138
scf7180000003292_nd_0_4222400,895986,10,66.096
scf7180000003292_nd_0_4222400,956657,10,66.447
scf7180000003292_nd_0_4222400,1037624,10,67.334
scf7180000003292_nd_0_4222400,1317597,10,67.229
scf7180000003292_nd_0_4222400,1725654,10,68.838
scf7180000003292_nd_0_4222400,1963793,10,69.386
scf7180000004559_nd_5000_484800,147402,10,74.857
scf7180000004559_nd_5000_484800,222805,10,74.857
scf7180000003501_nd_361200_1847800,958662,10,77.246
scf7180000003501_nd_361200_1847800,816271,10,77.546
scf7180000003501_nd_361200_1847800,447043,10,78.464
scf7180000003501_nd_361200_1847800,101998,10,78.74
scf7180000004563_nd_1522300_2775700,648681,11,13.965
scf7180000004563_nd_1522300_2775700,760962,11,14.427
scf7180000003744_nd_639100_2010452,1287127,11,0
scf7180000003744_nd_639100_2010452,1060788,11,1.765
scf7180000003744_nd_639100_2010452,710101,11,2.975
scf7180000003744_nd_0_638800,458036,11,7.173
scf7180000004563_nd_0_823800,315718,11,9.396
scf7180000004563_nd_0_823800,431965,11,9.231
scf7180000004563_nd_0_823800,597028,11,10.952
scf7180000004563_nd_0_823800,627119,11,11.298
scf7180000004563_nd_0_823800,715714,11,11.19
scf7180000004563_nd_0_823800,719945,11,11.243
scf7180000004563_nd_0_823800,772541,11,11.593
scf7180000004563_nd_859400_1522100,632606,11,11.86
scf7180000004563_nd_1522300_2775700,231725,11,12.68
scf7180000004563_nd_1522300_2775700,244922,11,12.981
scf7180000004563_nd_1522300_2775700,388335,11,13.828
scf7180000003743_nd_7500_183900,155419,11,14.426
scf7180000003294_nd_3448000_7814300,1302281,11,14.426
scf7180000003294_nd_3448000_7814300,1241718,11,14.396
scf7180000003294_nd_3448000_7814300,3375286,11,14.787
scf7180000003294_nd_3448000_7814300,3516785,11,14.733
scf7180000003379_nd_3000_5692212,166112,11,15.875
scf7180000003379_nd_3000_5692212,420753,11,16.474
scf7180000003379_nd_3000_5692212,1461740,11,17.07
scf7180000003379_nd_3000_5692212,1711445,11,17.336
scf7180000003379_nd_3000_5692212,1945605,11,18.002
scf7180000003379_nd_3000_5692212,2408987,11,20.343
scf7180000003379_nd_3000_5692212,2586427,11,20.346
scf7180000003379_nd_3000_5692212,2589359,11,20.647
scf7180000004518_nd_25900_5828300,4818560,11,20.98
scf7180000003379_nd_3000_5692212,2909020,11,21.246
scf7180000003379_nd_3000_5692212,3248333,11,21.244
scf7180000003379_nd_3000_5692212,3249563,11,21.268
scf7180000003379_nd_3000_5692212,3536976,11,21.549
scf7180000003379_nd_3000_5692212,3697129,11,22.146
scf7180000003379_nd_3000_5692212,3699695,11,22.123
scf7180000003379_nd_3000_5692212,3932930,11,22.453
scf7180000003379_nd_3000_5692212,4054860,11,22.453
scf7180000003379_nd_3000_5692212,4484818,11,27.11
scf7180000003379_nd_3000_5692212,4808941,11,29.62
scf7180000003379_nd_3000_5692212,4933710,11,29.94
scf7180000003413_nd_0_1435000,244553,11,34.28
scf7180000003413_nd_0_1435000,273868,11,34.208
scf7180000003413_nd_0_1435000,402807,11,34.266
scf7180000003413_nd_0_1435000,835640,11,35.819
scf7180000003413_nd_0_1435000,1175682,11,36.138
scf7180000003413_nd_0_1435000,1183581,11,36.138
scf7180000003413_nd_1560300_1739400,82400,11,36.756
scf7180000003469_nd_0_1442287,295932,11,37.373
scf7180000003469_nd_0_1442287,417188,11,37.987
scf7180000003469_nd_0_1442287,426577,11,37.987
scf7180000003469_nd_0_1442287,569328,11,39.176
scf7180000004520_nd_2096100_4994531,1810619,11,43.408
scf7180000004520_nd_2096100_4994531,2200454,11,42.386
scf7180000004520_nd_2096100_4994531,2168198,11,42.498
scf7180000004520_nd_2096100_4994531,2656768,11,42.197
scf7180000003469_nd_0_1442287,1351792,11,39.773
scf7180000003469_nd_0_1442287,950318,11,39.17
scf7180000004520_nd_2096100_4994531,382877,11,43.389
scf7180000004520_nd_2096100_4994531,465984,11,43.393
scf7180000004520_nd_2096100_4994531,422427,11,43.389
scf7180000004520_nd_2096100_4994531,127458,11,43.696
scf7180000004520_nd_2096100_4994531,28924,11,44.883
scf7180000004520_nd_2096100_4994531,19883,11,44.88
scf7180000004520_nd_2096100_4994531,12225,11,44.88
scf7180000004359_nd_200_217282,90742,11,45.764
scf7180000004538_nd_43600_2337421,1370621,11,46.059
scf7180000004538_nd_43600_2337421,1003609,11,46.352
scf7180000004538_nd_43600_2337421,888263,11,46.344
scf7180000004548_nd_6000_461800,27225,5,49.42
scf7180000004529_nd_1063400_1642584,202962,5,48.828
scf7180000004520_nd_2096100_4994531,646520,11,43.305
scf7180000004520_nd_2096100_4994531,647629,11,43.393
scf7180000004553_nd_615900_3772500,1252260,11,48.002
scf7180000004553_nd_615900_3772500,537746,11,48.298
scf7180000004553_nd_615900_3772500,536784,11,48.297
scf7180000004553_nd_615900_3772500,534759,11,48.295
scf7180000004553_nd_615900_3772500,360067,11,48.297
scf7180000004553_nd_0_604500,324742,11,49.172
scf7180000003289_nd_3669800_4928200,60393,11,50.594
scf7180000003289_nd_3669800_4928200,108460,11,50.63
scf7180000003289_nd_3669800_4928200,314517,11,52.726
scf7180000003289_nd_3669800_4928200,420759,11,53.006
scf7180000003289_nd_3669800_4928200,634474,11,53.425
scf7180000003289_nd_3669800_4928200,836905,11,54.335
scf7180000003289_nd_3669800_4928200,851439,11,54.64
scf7180000003289_nd_3669800_4928200,895451,11,54.937
scf7180000003454_nd_58200_2440553,6089,11,56.445
scf7180000003454_nd_58200_2440553,51796,11,56.369
scf7180000003454_nd_58200_2440553,361751,11,56.75
scf7180000003454_nd_58200_2440553,394102,11,56.75
scf7180000003454_nd_58200_2440553,725242,11,57.305
scf7180000003454_nd_58200_2440553,813122,11,57.607
scf7180000003454_nd_58200_2440553,889366,11,58.5
scf7180000003454_nd_58200_2440553,1476317,11,61.226
scf7180000004553_nd_615900_3772500,2737761,11,47.806
scf7180000004538_nd_43600_2337421,107352,11,48.002
scf7180000004538_nd_43600_2337421,142033,11,48.047
scf7180000004538_nd_43600_2337421,411907,11,47.557
scf7180000003454_nd_58200_2440553,1835516,11,62.745
scf7180000003454_nd_58200_2440553,1837681,11,62.745
scf7180000003454_nd_58200_2440553,1941254,11,62.883
scf7180000003382_nd_3789000_8551200,258075,11,63.055
scf7180000003382_nd_3789000_8551200,258636,11,63.05
scf7180000003382_nd_3789000_8551200,326280,11,63.05
scf7180000003382_nd_3789000_8551200,326310,11,63.057
scf7180000003382_nd_3789000_8551200,499993,11,64.564
scf7180000003382_nd_3789000_8551200,598327,11,65.48
scf7180000003382_nd_3789000_8551200,1192016,11,66.999
scf7180000003382_nd_3789000_8551200,1547998,11,67.609
scf7180000003382_nd_3789000_8551200,1594231,11,67.498
scf7180000003382_nd_3789000_8551200,1925368,11,69.716
scf7180000003382_nd_3789000_8551200,2220257,11,70.931
scf7180000003382_nd_3789000_8551200,2268837,11,70.936
scf7180000003382_nd_3789000_8551200,3129852,11,73.238
scf7180000003382_nd_3789000_8551200,3282404,11,73.539
scf7180000003382_nd_3789000_8551200,3387112,11,74.424
scf7180000003382_nd_3789000_8551200,3899223,11,74.989
scf7180000003382_nd_3789000_8551200,4120642,11,74.989
scf7180000003382_nd_3789000_8551200,4114550,11,75.069
scf7180000003382_nd_3789000_8551200,4445059,11,75.292
scf7180000003382_nd_3789000_8551200,4574851,11,75.212
scf7180000003382_nd_3789000_8551200,4587633,11,75.292
scf7180000003382_nd_3789000_8551200,4597292,11,75.594
scf7180000003382_nd_3789000_8551200,4679983,11,75.602
scf7180000003599_nd_3725800_3786278,4545,11,75.871
scf7180000003599_nd_0_3724900,3602835,11,75.871
scf7180000004540_nd_6000_1887600,1724572,11,76.774
scf7180000003599_nd_0_3724900,3267009,11,76.794
scf7180000003599_nd_0_3724900,2989830,11,77.682
scf7180000003599_nd_0_3724900,2459880,11,78.6
scf7180000003599_nd_0_3724900,2292539,11,78.589
scf7180000003599_nd_0_3724900,1650296,11,79.193
scf7180000003599_nd_0_3724900,1400863,11,80.994
scf7180000003599_nd_0_3724900,1385143,11,81.295
scf7180000003599_nd_0_3724900,1205838,11,82.565
scf7180000003599_nd_0_3724900,1102950,11,84
scf7180000003599_nd_0_3724900,1044611,11,84.062
scf7180000003599_nd_0_3724900,920446,11,83.697
scf7180000003599_nd_0_3724900,32354,11,87.589
scf7180000003549_nd_0_1713900,1620816,11,87.584
scf7180000003549_nd_0_1713900,1579197,11,87.872
scf7180000003549_nd_0_1713900,1446058,11,88.169
scf7180000003549_nd_0_1713900,1319839,11,88.169
scf7180000003549_nd_0_1713900,695052,11,89.064
scf7180000003549_nd_0_1713900,494265,11,89.084
