Scaffold ID,scaffold position,LG,genetic position
scf7180000003597,849775,1,2.357
scf7180000003597,735027,1,2.343
scf7180000003597,698277,1,2.359
scf7180000003597,637146,1,2.373
scf7180000003597,612406,1,2.373
scf7180000003597,534284,1,2.411
scf7180000003597,4915518,1,6.646
scf7180000003597,4832820,1,5.863
scf7180000002626,2058788,1,4.124
scf7180000003194,787737,1,0
scf7180000003597,405260,1,2.077
scf7180000003597,3242441,1,4.965
scf7180000003597,3384468,1,4.989
scf7180000003597,3488416,1,4.977
scf7180000002602.2,615007,1,13.35
scf7180000002602.2,75924,1,13.35
scf7180000002602.1,895069,1,13.039
scf7180000002602.1,545813,1,12.18
scf7180000002602.1,173193,1,11.303
scf7180000002579.4,5046689,1,11.006
scf7180000002579.4,4872820,1,11.011
scf7180000002579.4,4793524,1,10.728
scf7180000002579.4,4616887,1,10.434
scf7180000002579.4,4285731,1,10.152
scf7180000002607.3,2934245,1,10.151
scf7180000002579.4,3784111,1,10.147
scf7180000002579.4,3732288,1,10.111
scf7180000002579.4,3670382,1,10.151
scf7180000002579.4,3519956,1,9.859
scf7180000002579.4,3391798,1,9.845
scf7180000002579.4,1990502,1,8.778
scf7180000002579.4,1211817,1,7.895
scf7180000002579.4,381348,1,7.909
scf7180000002579.4,250458,1,7.902
scf7180000002667,1758438,1,35.004
scf7180000002857,975046,1,36.312
scf7180000002857,955419,1,36.987
scf7180000002857,317565,1,39.402
scf7180000002657.2,1305905,1,18.244
scf7180000002657.2,1362478,1,18.254
scf7180000002657.2,1426976,1,18.242
scf7180000002657.2,1664786,1,18.256
scf7180000002657.2,1920900,1,17.648
scf7180000002623,1806776,1,15.69
scf7180000002623,1428662,1,15.688
scf7180000002623,1321522,1,15.691
scf7180000002623,882727,1,15.749
scf7180000002623,779331,1,15.607
scf7180000002623,387618,1,15.695
scf7180000003544,77065,1,7.987
scf7180000003520,138799,1,7.902
scf7180000002667,1219573,1,31.831
scf7180000002667,952877,1,29.253
scf7180000002667,863504,1,28.934
scf7180000002667,571243,1,28.016
scf7180000002659,123008,1,25.493
scf7180000002659,307417,1,24.56
scf7180000002657.1,197945,1,24.569
scf7180000002657.1,257470,1,23.663
scf7180000002657.1,764827,1,20.335
scf7180000002657.1,1001085,1,20.328
scf7180000002657.1,1034189,1,20.328
scf7180000002657.2,137759,1,19.132
scf7180000002657.2,435650,1,19.13
scf7180000002657.2,610111,1,19.13
scf7180000002657.2,610594,1,19.234
scf7180000002657.2,626541,1,18.831
scf7180000002657.2,1105342,1,18.242
scf7180000003517,968505,1,41.427
scf7180000003097,280875,1,44.115
scf7180000003097,64110,1,45.018
scf7180000003097,21066,1,45.018
scf7180000003456,1730365,1,45.015
scf7180000003456,1557056,1,45.002
scf7180000003456,1444505,1,45.285
scf7180000003456,1437844,1,45.287
scf7180000003456,1103034,1,45.294
scf7180000003456,1084751,1,45.262
scf7180000003456,1038754,1,45.892
scf7180000003456,623326,1,46.023
scf7180000003456,476378,1,47.079
scf7180000002604.1,120056,1,47.99
scf7180000002604.1,195255,1,47.99
scf7180000002604.1,198755,1,48.291
scf7180000002604.1,246767,1,48.643
scf7180000002604.1,291474,1,48.891
scf7180000003592,28348,1,49.491
scf7180000002604.1,538041,1,50.981
scf7180000002604.1,1142780,1,53.086
scf7180000002604.1,1144815,1,53.086
scf7180000002604.1,1248127,1,53.386
scf7180000002604.1,1248294,1,53.385
scf7180000002604.1,1257351,1,53.387
scf7180000002604.1,1259391,1,53.386
scf7180000002604.1,1389800,1,54.248
scf7180000002604.1,1914142,1,57.268
scf7180000002604.1,2028364,1,57.877
scf7180000002604.1,2356734,1,57.876
scf7180000003275,6766,1,57.876
scf7180000002714,283548,1,60.293
scf7180000002714,333902,1,60.569
scf7180000002714,476014,1,60.897
scf7180000003127,46050,1,61.199
scf7180000003127,480497,1,62.45
scf7180000002864.1,403318,1,64.788
scf7180000002864.1,474005,1,65.089
scf7180000002864.1,474934,1,65.09
scf7180000002864.1,519385,1,65.991
scf7180000002864.1,676107,1,66.889
scf7180000002864.1,787149,1,68.085
scf7180000002864.1,932335,1,68.388
scf7180000002864.1,1044153,1,68.967
scf7180000002864.1,1097096,1,69.858
scf7180000002864.1,1218737,1,69.864
scf7180000002864.1,1344630,1,70.161
scf7180000002864.1,2005484,1,70.45
scf7180000002864.1,2131992,1,70.464
scf7180000002864.1,2155047,1,70.746
scf7180000002864.1,2173502,1,70.711
scf7180000002864.1,2309714,1,71.021
scf7180000002864.1,2412695,1,71.042
scf7180000002932,477555,1,72.795
scf7180000002932,688266,1,73.093
scf7180000002932,744965,1,73.408
scf7180000002932,747881,1,73.704
scf7180000002932,760698,1,74
scf7180000002825.2,1146527,1,74.593
scf7180000002825.2,475462,1,76.668
scf7180000003561,252995,1,77.26
scf7180000003561,347935,1,77.26
scf7180000003561,372232,1,77.54
scf7180000003561,1068036,1,77.54
scf7180000002609,157663,6,48.315
scf7180000002609,148041,6,48.307
scf7180000002764,158671,2,0.12
scf7180000002764,468811,2,0
scf7180000002764,478111,2,0.017
scf7180000003579.2,2458265,2,0.718
scf7180000003579.2,382000,2,3.467
scf7180000003579.2,170073,2,4.984
scf7180000003579.1,3016689,2,5.878
scf7180000003579.1,3005661,2,5.878
scf7180000003579.1,2807308,2,6.114
scf7180000003579.1,2795997,2,6.181
scf7180000003579.1,1851519,2,7.081
scf7180000003579.1,1195112,2,9.812
scf7180000003579.1,1126746,2,10.115
scf7180000003579.1,1105862,2,10.099
scf7180000003579.1,1028724,2,10.418
scf7180000003579.1,896683,2,10.982
scf7180000003579.1,890957,2,11.012
scf7180000003579.1,802838,2,11.579
scf7180000003579.1,727399,2,11.91
scf7180000002594.1,416931,2,13.555
scf7180000002594.1,506240,2,13.853
scf7180000002594.1,901533,2,14.959
scf7180000002594.1,904255,2,14.981
scf7180000002594.1,1189439,2,15.621
scf7180000002594.1,1489667,2,15.734
scf7180000002666,205904,2,16.507
scf7180000002705,72551,2,27.507
scf7180000002705,75035,2,27.503
scf7180000002705,91233,2,16.507
scf7180000002705,506024,2,16.499
scf7180000003264,106073,2,18.283
scf7180000002732,2647604,7,0.298
scf7180000002732,2650109,7,1.185
scf7180000003022,608577,2,21.533
scf7180000003593,4354494,2,18.874
scf7180000002622.3,2303798,2,18.103
scf7180000002875,68501,2,18.067
scf7180000003593,5661828,2,18.284
scf7180000003593,4034182,2,18.804
scf7180000003593,1609908,2,20.161
scf7180000003593,1225890,2,20.69
scf7180000002825.1,951114,2,23.284
scf7180000002825.1,1739038,2,23.859
scf7180000002825.1,1988746,2,24.142
scf7180000002825.1,1989242,2,24.48
scf7180000003578.2,965151,2,24.87
scf7180000003578.2,1788739,2,24.799
scf7180000003578.2,1791544,2,24.673
scf7180000003600,1867244,2,24.763
scf7180000003600,1714735,2,24.758
scf7180000003600,212098,2,24.764
scf7180000002689,533220,2,24.857
scf7180000002751,1086675,2,25.316
scf7180000002751,1105728,2,25.24
scf7180000002751,1114617,2,25.312
scf7180000002751,930417,2,25.312
scf7180000002787,851763,2,28.092
scf7180000002602.2,5335297,2,27.797
scf7180000002828,374432,2,27.506
scf7180000002593.2,669439,2,27.506
scf7180000003446,166561,2,27.506
scf7180000002815,197518,2,27.507
scf7180000002751,178855,2,25.029
scf7180000002729,531113,2,26.452
scf7180000002837,64363,2,26.362
scf7180000002729,607592,2,26.362
scf7180000002729,618629,2,26.567
scf7180000002684,965060,2,27.513
scf7180000003061,84235,2,25.496
scf7180000002595,2122975,5,26.211
scf7180000002787,1215618,2,28.092
scf7180000002787,1788315,2,28.121
scf7180000002787,1952728,2,28.103
scf7180000002665.2,3306862,2,28.279
scf7180000002665.2,3204668,2,28.38
scf7180000002665.2,3100278,2,30.332
scf7180000002665.2,2885276,2,30.66
scf7180000002665.2,2799602,2,31.265
scf7180000002665.2,2688659,2,31.797
scf7180000002665.2,2408630,2,32.094
scf7180000002665.2,1909070,2,35.331
scf7180000002665.2,1599512,2,35.331
scf7180000002665.2,1496955,2,35.389
scf7180000002665.2,1459294,2,35.375
scf7180000002665.2,856099,2,35.644
scf7180000002665.2,805211,2,36.121
scf7180000002665.2,700216,2,36.551
scf7180000002665.2,668997,2,36.696
scf7180000002665.2,218833,2,41.874
scf7180000002665.2,217896,2,41.843
scf7180000003593,2066593,2,20.163
scf7180000002602.2,2611816,1,15.688
scf7180000002602.2,1874627,1,14.227
scf7180000002602.2,1849952,1,14.239
scf7180000002602.2,1163815,1,13.934
scf7180000003162,4858,2,52.366
scf7180000003574,152621,2,54.029
scf7180000003574,157453,2,54.029
scf7180000003574,383964,2,55.225
scf7180000003574,513209,2,55.937
scf7180000003583.7,1422740,2,56.009
scf7180000003583.7,1253905,2,56.335
scf7180000003583.7,975827,2,59.21
scf7180000003583.7,806277,2,60.474
scf7180000003583.7,799425,2,60.473
scf7180000003583.7,183943,2,66.949
scf7180000003583.7,391960,2,62.595
scf7180000003583.7,489487,2,61.723
scf7180000003583.7,495123,2,61.677
scf7180000003583.7,548431,2,60.474
scf7180000003001.2,22972,2,71.749
scf7180000003001.2,27661,2,71.742
scf7180000003001.2,38293,2,71.749
scf7180000003001.2,93317,2,72.334
scf7180000003001.2,144812,2,72.328
scf7180000003001.2,154054,2,72.627
scf7180000003001.2,224439,2,72.597
scf7180000003001.2,233138,2,72.627
scf7180000003001.2,326635,2,73.211
scf7180000003001.2,401370,2,73.206
scf7180000003001.2,436115,2,73.211
scf7180000003001.2,478046,2,73.479
scf7180000003001.2,502067,2,73.454
scf7180000003001.2,636181,2,73.794
scf7180000003001.2,641543,2,73.785
scf7180000003001.2,667650,2,73.794
scf7180000003583.1,3036054,2,75.54
scf7180000003583.1,3019444,2,75.521
scf7180000003583.1,2980038,2,75.83
scf7180000003583.1,2948088,2,76.379
scf7180000003583.1,2901868,2,76.379
scf7180000003583.1,2811722,2,76.379
scf7180000003583.1,2775513,2,76.38
scf7180000003583.1,2658768,2,76.671
scf7180000003583.1,2548882,2,76.667
scf7180000003583.1,2548277,2,76.671
scf7180000003583.1,2345585,2,77.547
scf7180000003583.1,2330036,2,77.839
scf7180000003583.1,2290155,2,77.965
scf7180000003583.1,2256235,2,77.841
scf7180000003583.1,2200632,2,77.839
scf7180000003583.1,2198606,2,77.839
scf7180000003583.1,2001909,2,78.422
scf7180000003583.1,1960988,2,78.999
scf7180000003583.1,1880821,2,79.091
scf7180000003583.1,1754768,2,79.874
scf7180000003583.1,1723766,2,79.874
scf7180000003583.1,1665488,2,80.165
scf7180000003583.1,1637262,2,80.456
scf7180000003583.1,1611907,2,80.456
scf7180000003583.1,1481285,2,80.731
scf7180000003583.1,1466257,2,80.731
scf7180000003583.1,1434036,2,81.021
scf7180000003583.1,1404487,2,81.603
scf7180000003583.1,1375733,2,81.904
scf7180000003583.1,1374048,2,81.894
scf7180000003583.1,1368467,2,81.894
scf7180000003583.1,1330779,2,82.214
scf7180000003583.1,1300099,2,82.185
scf7180000003583.1,1163338,2,82.477
scf7180000003583.1,1094504,2,82.768
scf7180000003583.1,1060463,2,82.768
scf7180000003583.1,1036940,2,83.06
scf7180000003583.1,937326,2,83.06
scf7180000003583.1,937228,2,83.106
scf7180000003583.1,823504,2,83.134
scf7180000003583.1,818647,2,82.953
scf7180000003583.1,701488,2,82.941
scf7180000003583.3,458112,5,60.367
scf7180000002580.1,5423566,7,3.19
scf7180000002682.3,1541851,3,89.018
scf7180000002579.1,1899225,3,0
scf7180000002579.1,2112072,3,1.477
scf7180000002579.1,2213040,3,1.466
scf7180000002579.1,2792259,3,5.761
scf7180000002579.1,5074923,3,17.535
scf7180000002579.1,5550423,3,26.215
scf7180000003522,2061228,3,34.269
scf7180000002602.1,381502,1,70.422
scf7180000003522,2219664,3,32.497
scf7180000003522,2331098,3,31.934
scf7180000003124.1,1134013,3,38.158
scf7180000003124.1,1129091,3,38.092
scf7180000003124.1,1128977,3,38.067
scf7180000003124.1,645188,3,37.537
scf7180000003556,498160,3,41.23
scf7180000003124.1,2387613,3,40.391
scf7180000003124.1,2284996,3,40.422
scf7180000003124.1,1759647,3,39.857
scf7180000003124.1,1613513,3,39.264
scf7180000002665.2,1039953,11,14.276
scf7180000002682.2,30448,3,46.01
scf7180000002682.2,240453,3,47.561
scf7180000002682.2,474288,3,49.706
scf7180000002682.2,710923,3,49.977
scf7180000002682.2,677655,3,50.166
scf7180000002682.2,777345,3,50.156
scf7180000002682.2,940492,3,50.473
scf7180000002682.2,1436176,3,51.393
scf7180000002591,877488,3,60.338
scf7180000002591,829474,3,60.324
scf7180000002591,260775,3,60.944
scf7180000002682.3,782147,3,57.806
scf7180000002590.2,20585,5,34.353
scf7180000002990,579750,3,66.991
scf7180000002990,229699,3,66.07
scf7180000003142,126413,3,68.497
scf7180000003583.2,49238,3,68.497
scf7180000003583.2,53522,3,68.483
scf7180000003583.2,96605,3,69.152
scf7180000003583.2,120893,3,69.095
scf7180000003583.2,377546,3,70.538
scf7180000003583.2,551330,3,70.598
scf7180000003583.2,594852,3,70.594
scf7180000003583.2,665219,3,70.583
scf7180000003583.2,660744,3,70.598
scf7180000002922,217068,3,67.895
scf7180000003142,295175,3,68.198
scf7180000003583.2,1627979,3,72.481
scf7180000003583.2,1737983,3,72.381
scf7180000003583.2,1869747,3,72.387
scf7180000003583.2,1952366,3,72.686
scf7180000003022,400315,3,74.484
scf7180000003022,214462,3,76.27
scf7180000003022,9136,3,77.165
scf7180000003551,476418,3,77.165
scf7180000003551,765818,3,78.645
scf7180000003583.2,1352620,3,71.778
scf7180000003583.2,1315828,3,71.483
scf7180000002824,84315,3,88.67
scf7180000002824,63823,3,88.682
scf7180000002731,569655,3,88.671
scf7180000002731,556271,3,88.682
scf7180000002731,553904,3,88.757
scf7180000002731,483594,3,88.683
scf7180000002731,346617,3,88.671
scf7180000002657.3,1265067,3,87.824
scf7180000002657.3,1258370,3,87.813
scf7180000003551,884336,3,78.645
scf7180000003551,1393956,3,79.241
scf7180000003551,1514318,3,79.854
scf7180000003551,1662680,3,80.124
scf7180000003551,1663399,3,80.128
scf7180000003551,1674325,3,80.422
scf7180000003551,1801519,3,81.908
scf7180000003551,1802993,3,81.908
scf7180000003551,2736802,3,82.501
scf7180000003551,2984999,3,83.963
scf7180000003551,3166841,3,86.011
scf7180000002657.3,483307,3,86.608
scf7180000002657.3,531507,3,86.379
scf7180000002657.3,637414,3,86.927
scf7180000002657.3,874014,5,74.117
scf7180000002959,1527204,4,0
scf7180000002959,2323719,5,48.236
scf7180000002959,2713151,4,0.318
scf7180000002959,2862086,4,1.441
scf7180000002959,3107104,4,3.124
scf7180000002959,3469548,4,3.837
scf7180000002959,3511433,4,3.875
scf7180000002959,3557867,4,3.837
scf7180000002959,3821559,4,5.027
scf7180000002816,504825,4,5.611
scf7180000002621.1,929250,4,6.506
scf7180000002621.1,930081,4,6.518
scf7180000002621.1,948676,4,6.518
scf7180000002621.1,949373,4,6.537
scf7180000002579.5,3167585,4,6.501
scf7180000002621.1,1447246,4,6.57
scf7180000002621.1,2331352,4,6.814
scf7180000002621.1,2369949,4,7.405
scf7180000002621.1,2631886,4,7.984
scf7180000002621.2,63211,4,8.651
scf7180000002621.2,230129,4,8.885
scf7180000002621.2,430728,4,9.766
scf7180000002621.2,688069,4,10.062
scf7180000002621.2,689036,4,10.055
scf7180000002881,464162,5,50.337
scf7180000002709,43880,4,10.699
scf7180000002709,559801,4,11.243
scf7180000002709,798077,4,12.074
scf7180000002709,957803,4,12.065
scf7180000003155,2541970,4,12.792
scf7180000003155,2549292,4,12.663
scf7180000003083,574857,4,12.663
scf7180000003131,45717,4,12.069
scf7180000003129,161813,4,12.074
scf7180000003129,108814,4,12.071
scf7180000002730,16166,4,17.85
scf7180000002691,36477,4,17.853
scf7180000003253,190095,4,20.808
scf7180000003253,80951,4,21.097
scf7180000003571,1152505,4,21.101
scf7180000003571,1421006,4,21.465
scf7180000003571,1425697,4,21.112
scf7180000003571,1438212,4,20.968
scf7180000003571,2455160,4,21.389
scf7180000003571,2494923,4,21.336
scf7180000003571,2980495,4,21.385
scf7180000003571,3358323,4,21.711
scf7180000003571,3601381,4,22.008
scf7180000003573.1,5232914,4,24.387
scf7180000003573.1,5158460,4,24.377
scf7180000003155,1870098,4,12.918
scf7180000003155,1869997,4,13.224
scf7180000003155,1844934,4,13.224
scf7180000003155,1641514,4,14.067
scf7180000003155,1359431,4,15.813
scf7180000003155,1357317,4,15.813
scf7180000003155,1333480,4,15.953
scf7180000003155,1333357,4,15.764
scf7180000002695.2,1016621,9,48.442
scf7180000003155,241206,4,16.678
scf7180000002730,1012097,4,17.59
scf7180000003295,149735,4,17.568
scf7180000003578.2,299434,4,17.589
scf7180000003573.3,1400285,4,17.57
scf7180000002590.1,274512,4,17.589
scf7180000003573.1,4112057,4,25.244
scf7180000002870,2977751,5,48.157
scf7180000002870,2968349,5,48.055
scf7180000002870,2277897,5,48.487
scf7180000002622.3,2102024,5,48.745
scf7180000002870,1932941,5,48.789
scf7180000003573.1,3003491,4,25.571
scf7180000003573.1,2893129,4,25.571
scf7180000003573.1,2706842,4,25.926
scf7180000003573.1,2511780,4,27.292
scf7180000003573.1,2466577,4,27.311
scf7180000003573.1,2462044,4,27.187
scf7180000003573.1,2403443,4,27.284
scf7180000003573.1,2398611,4,27.291
scf7180000003573.1,2144541,4,29.237
scf7180000003573.1,1944887,4,29.843
scf7180000003573.1,1867306,4,30.147
scf7180000003573.1,1824916,4,30.746
scf7180000003573.1,1713329,4,31.353
scf7180000003573.1,1585250,4,31.659
scf7180000003573.1,1410739,4,31.659
scf7180000003573.1,1364594,4,32.268
scf7180000003573.1,1253384,4,34.716
scf7180000002794,7032,4,35.738
scf7180000003573.1,823544,4,36.05
scf7180000003573.1,755596,4,36.396
scf7180000003573.1,489268,4,36.359
scf7180000003573.1,304124,4,38.184
scf7180000003573.1,278480,4,38.48
scf7180000003573.1,225946,4,38.494
scf7180000002671.1,673740,4,47.39
scf7180000002671.1,856021,4,48.491
scf7180000002671.2,43500,4,49.838
scf7180000002671.2,61519,4,49.838
scf7180000002671.2,101306,4,49.783
scf7180000002671.2,138134,4,50.142
scf7180000002671.2,584224,4,51.35
scf7180000002671.2,626134,4,51.952
scf7180000002671.2,768319,4,53.092
scf7180000002671.2,796516,4,53.44
scf7180000002671.2,865607,4,53.438
scf7180000003548,518042,4,54.035
scf7180000003548,447830,4,55.229
scf7180000003548,424800,4,55.515
scf7180000003548,233579,4,55.518
scf7180000003548,110315,4,57.576
scf7180000003548,109773,4,57.593
scf7180000003548,88397,4,57.871
scf7180000003016,524680,4,59.586
scf7180000003016,371633,4,61.068
scf7180000003016,330858,4,61.086
scf7180000003026,189182,5,60.409
scf7180000002740.1,771357,5,0
scf7180000002740.1,770387,5,0.016
scf7180000002740.1,661813,5,0.39
scf7180000002740.1,577412,5,0.654
scf7180000002740.1,559313,5,0.232
scf7180000002740.1,385028,5,0.737
scf7180000002740.1,373021,5,0.955
scf7180000002740.1,252334,5,2.622
scf7180000002788.2,686808,5,4.411
scf7180000002788.2,86892,5,9.492
scf7180000002788.1,1003632,5,9.792
scf7180000002788.1,600876,5,10.091
scf7180000002788.1,516976,5,10.091
scf7180000002788.1,290652,5,10.398
scf7180000002788.1,181651,5,10.389
scf7180000002788.1,166917,5,10.389
scf7180000002792,60824,5,11.888
scf7180000002792,74069,5,11.878
scf7180000003558,472219,5,12.187
scf7180000003558,389968,5,12.789
scf7180000003558,136417,5,13.994
scf7180000003558,95159,5,14.159
scf7180000003558,23822,5,15.641
scf7180000002972,178784,5,15.94
scf7180000002972,174668,5,15.964
scf7180000002972,119622,5,16.239
scf7180000002972,94977,5,16.157
scf7180000002579.5,6528268,5,16.239
scf7180000002579.5,6499542,5,16.534
scf7180000002579.5,5896224,5,18.068
scf7180000002579.5,5863682,5,19.226
scf7180000002620,350494,5,20.745
scf7180000002620,254936,5,21.033
scf7180000002620,234463,5,21.033
scf7180000003457,186910,5,23.813
scf7180000003458,393183,5,25.596
scf7180000003458,440104,5,25.908
scf7180000003458,440180,5,25.978
scf7180000003458,460378,5,25.908
scf7180000003458,799902,5,26.219
scf7180000003458,858275,5,26.219
scf7180000003458,1260614,5,26.845
scf7180000003458,1528626,5,28.552
scf7180000003458,1828744,5,29.015
scf7180000002597.1,6921901,5,31.137
scf7180000003458,2282855,5,32.254
scf7180000003579.3,202747,5,32.538
scf7180000003579.3,311260,5,32.837
scf7180000003579.3,517681,5,33.132
scf7180000003579.3,613757,5,33.754
scf7180000003579.3,642160,5,33.654
scf7180000003579.3,713020,5,33.74
scf7180000003579.3,732331,5,33.754
scf7180000003579.3,1530424,5,34.36
scf7180000003579.3,1656400,5,35.214
scf7180000003579.3,1658929,5,35.286
scf7180000003579.3,1660405,5,35.286
scf7180000003579.3,1809986,5,36.476
scf7180000003579.3,2413638,5,36.511
scf7180000003088,107524,5,36.476
scf7180000002721,801955,5,36.871
scf7180000002721,858263,5,36.779
scf7180000002721,1278126,5,37.358
scf7180000002626,258007,5,37.385
scf7180000002626,744230,5,38.297
scf7180000003551,3504434,5,39.958
scf7180000002626,2516139,5,40.001
scf7180000002595,1647139,5,40.111
scf7180000002626,2359352,5,39.137
scf7180000002626,2124366,5,38.264
scf7180000002626,1970213,5,38.394
scf7180000002626,1850304,5,38.285
scf7180000002590.1,732367,5,42.312
scf7180000002605,645504,5,42.315
scf7180000002605,336712,5,44.106
scf7180000002651,326831,5,45.598
scf7180000002651,414513,5,46.191
scf7180000002651,452314,5,46.479
scf7180000002651,504323,5,46.478
scf7180000003209,337574,5,46.477
scf7180000003209,339847,5,46.48
scf7180000003209,577621,5,46.477
scf7180000003209,699435,5,47.057
scf7180000002870,4440865,5,47.654
scf7180000002870,4305985,5,47.654
scf7180000002870,3514000,5,47.925
scf7180000002870,3984745,5,47.68
scf7180000002798,61664,5,50.006
scf7180000002597.1,137183,5,50.124
scf7180000002597.1,1168224,5,50.006
scf7180000002597.1,1229792,5,50.006
scf7180000003165,568839,5,49.713
scf7180000003580,938716,5,51.961
scf7180000002579.5,4447021,5,51.981
scf7180000002579.5,3987312,5,52.03
scf7180000002579.5,3736482,5,52.03
scf7180000002579.5,2829665,5,51.216
scf7180000002579.5,2679451,5,51.211
scf7180000002579.5,366622,5,50.009
scf7180000002579.5,223363,5,50.015
scf7180000002579.5,177134,5,50.015
scf7180000002579.5,123372,5,50.008
scf7180000002585.2,1809197,5,50.009
scf7180000002591,5712564,9,21.38
scf7180000002604.2,228931,5,62.49
scf7180000002604.2,235204,5,62.636
scf7180000003044,36154,5,52.292
scf7180000003580,1468649,5,53.273
scf7180000003580,1532126,5,54.665
scf7180000003580,3118960,5,57.391
scf7180000003580,3145272,5,57.401
scf7180000003580,3851666,5,59.247
scf7180000003580,4888447,5,59.208
scf7180000003124.1,692536,3,37.509
scf7180000003124.1,574255,3,37.509
scf7180000003124.1,679844,3,37.492
scf7180000003124.1,603660,3,37.535
scf7180000003124.1,494125,3,36.69
scf7180000003124.1,405226,3,36.397
scf7180000003124.1,250578,3,36.103
scf7180000003598,326020,5,62.2
scf7180000003553.2,767875,5,62.433
scf7180000003553.2,746999,5,62.492
scf7180000003598,16769,5,62.54
scf7180000003583.7,660980,5,62.212
scf7180000003565,569720,5,61.888
scf7180000003026,764959,5,61.888
scf7180000003026,201958,5,60.082
scf7180000002585.1,1885338,5,59.229
scf7180000002596.1,506649,5,72.687
scf7180000002596.1,608031,5,72.38
scf7180000002596.1,744020,5,71.478
scf7180000002596.1,979373,5,70.878
scf7180000002596.1,1154103,5,70.576
scf7180000002596.1,1654572,5,68.086
scf7180000002596.1,1900355,5,67.887
scf7180000002596.1,2058272,5,67.872
scf7180000002648,83311,5,66.985
scf7180000002648,113086,5,66.395
scf7180000002648,119403,5,66.395
scf7180000002845,716979,5,64.608
scf7180000002845,672110,5,64.719
scf7180000002845,322761,5,63.401
scf7180000002845,310406,5,63.401
scf7180000002604.2,4290076,5,63.108
scf7180000002604.2,4140307,5,62.807
scf7180000002604.2,3751142,5,62.559
scf7180000002580.1,2852921,5,62.528
scf7180000002604.2,221485,5,62.587
scf7180000002596.1,134447,5,72.986
scf7180000002579.5,7479894,5,72.969
scf7180000002579.5,7262799,5,73.861
scf7180000002579.5,6865018,5,74.718
scf7180000002579.5,6849866,5,74.743
scf7180000002622.1,1043171,6,2.038
scf7180000002622.3,48928,6,0
scf7180000003551,3784917,3,86.64
scf7180000003551,3905381,3,86.335
scf7180000002622.1,543123,6,2.628
scf7180000002622.1,647564,6,2.017
scf7180000002622.1,692727,6,1.997
scf7180000002622.1,956160,6,2.034
scf7180000002601,1409419,6,8.634
scf7180000002601,1051533,6,8.332
scf7180000002601,895944,6,8.031
scf7180000002601,635797,6,6.835
scf7180000002622.1,72740,6,5.31
scf7180000003549,1534925,6,8.737
scf7180000002928,244177,6,13.989
scf7180000003549,253641,6,11.082
scf7180000002759,2131769,6,11.069
scf7180000002759,2130079,6,11.069
scf7180000002759,2077302,6,11.071
scf7180000002759,2037434,6,11.138
scf7180000002759,2013211,6,11.058
scf7180000002759,1451469,6,11.372
scf7180000002759,1439183,6,11.676
scf7180000002759,1419636,6,12.024
scf7180000002759,1264741,6,11.98
scf7180000002759,954545,6,13.691
scf7180000002759,939712,6,14.111
scf7180000002579.2,1507086,6,13.979
scf7180000002579.2,2194531,6,16.396
scf7180000002579.2,2001611,6,18.23
scf7180000002579.2,1753239,6,18.516
scf7180000002579.2,1396616,6,19.239
scf7180000002579.2,1382095,6,19.241
scf7180000002579.2,1353990,6,19.686
scf7180000002579.2,1215740,6,19.686
scf7180000002579.2,1084004,6,19.594
scf7180000002579.2,906349,6,20.263
scf7180000002579.2,849044,6,21.14
scf7180000002579.2,659466,6,22.919
scf7180000002579.2,475723,6,22.919
scf7180000002702,519718,6,23.051
scf7180000002579.2,347292,6,20.648
scf7180000002579.2,285859,6,23.251
scf7180000002580.1,278320,6,23.164
scf7180000002580.1,819229,6,24.753
scf7180000002580.1,1299270,6,27.123
scf7180000002580.1,1606344,6,27.011
scf7180000002580.1,1973207,6,27.123
scf7180000002580.1,2003415,6,27.365
scf7180000002580.1,2045294,6,27.61
scf7180000002580.1,2494056,6,29.12
scf7180000002580.1,2568308,6,29.729
scf7180000002580.1,2702247,6,29.96
scf7180000002580.1,3044917,6,30.565
scf7180000002580.1,3072722,6,31.452
scf7180000002580.1,3091287,6,32.264
scf7180000002580.1,3095188,6,32.264
scf7180000002580.1,3370594,6,32.553
scf7180000002580.1,3582667,6,32.553
scf7180000002580.1,3788412,6,32.549
scf7180000002580.1,4070855,6,32.851
scf7180000002580.1,5067359,6,33.315
scf7180000003576,233126,6,33.466
scf7180000003576,393146,6,33.771
scf7180000003576,619237,6,33.774
scf7180000003576,881269,6,33.774
scf7180000003576,974953,6,34.676
scf7180000003576,979027,2,19.006
scf7180000003576,1009850,6,34.973
scf7180000002813,2077131,6,39.802
scf7180000002813,1733078,6,40.107
scf7180000002669,1434494,6,34.972
scf7180000002669,1009881,6,35.863
scf7180000002669,684709,6,37.681
scf7180000002590.1,1666348,6,38.451
scf7180000002590.1,1650204,6,38.451
scf7180000002590.1,1482728,6,38.934
scf7180000002590.1,1447858,6,38.936
scf7180000002609,2410309,6,46.041
scf7180000002625,958544,6,44.733
scf7180000002625,942259,6,44.732
scf7180000002625,908685,6,44.745
scf7180000002625,886158,6,44.734
scf7180000002625,491547,6,43.556
scf7180000002625,376455,6,43.557
scf7180000002677,58796,6,43.557
scf7180000002677,183062,6,42.966
scf7180000002677,1118478,6,42.678
scf7180000002677,1281564,6,42.087
scf7180000002677,1596187,6,41.864
scf7180000002677,1677970,6,41.505
scf7180000002677,1719949,6,41.566
scf7180000002677,1863957,6,41.581
scf7180000002677,2070510,6,41.566
scf7180000002677,2240702,6,41.234
scf7180000002677,2338753,6,40.982
scf7180000002677,2403035,6,40.694
scf7180000002677,2516196,6,40.4
scf7180000002677,2538048,6,40.388
scf7180000002677,2635922,6,40.351
scf7180000002677,2753401,6,40.4
scf7180000002677,3012136,6,40.103
scf7180000002609,536090,6,48.311
scf7180000002609,585461,6,48.176
scf7180000002609,991873,6,49.214
scf7180000002609,996891,6,49.265
scf7180000002609,998340,6,49.21
scf7180000002970,655516,6,49.818
scf7180000002609,1271712,6,49.818
scf7180000002609,1453257,6,50.072
scf7180000002609,1579034,6,50.109
scf7180000002609,1726160,6,50.416
scf7180000002609,1782576,6,50.423
scf7180000002609,1827102,6,50.416
scf7180000003124.2,1695985,6,51.027
scf7180000003124.2,1198513,6,52.56
scf7180000003124.2,895369,6,52.602
scf7180000002788.1,21869,6,52.56
scf7180000003124.2,677026,6,53.172
scf7180000003124.2,656554,6,53.483
scf7180000003124.2,589921,6,54.705
scf7180000002607.3,3333265,6,56.573
scf7180000002607.3,3331283,6,56.45
scf7180000002607.3,3072683,6,56.754
scf7180000002607.3,2883007,6,56.754
scf7180000002607.3,2652118,6,57.367
scf7180000002607.3,2630484,6,57.664
scf7180000002607.3,2390209,6,58.563
scf7180000002607.3,2298583,6,58.865
scf7180000002607.3,2041396,6,59.769
scf7180000002607.3,2022083,6,60.071
scf7180000002607.3,1989227,6,60.375
scf7180000002607.3,1382798,6,60.973
scf7180000002607.3,1141570,6,61.575
scf7180000002607.3,1096355,6,62.282
scf7180000002607.3,948034,6,62.174
scf7180000002607.3,886683,6,62.492
scf7180000002607.3,777385,6,63.398
scf7180000002607.3,604915,6,64.313
scf7180000002607.3,351716,6,65.692
scf7180000002607.2,2970026,6,68.404
scf7180000002607.2,2942772,6,68.722
scf7180000002607.2,2942187,6,68.701
scf7180000002607.2,2872947,6,68.73
scf7180000002607.2,2815957,6,68.722
scf7180000002607.2,2778218,6,69.648
scf7180000002607.2,2703367,6,70.245
scf7180000002607.2,2573918,6,70.866
scf7180000002607.2,2529599,6,70.866
scf7180000002607.2,2498990,6,71.483
scf7180000002607.2,2240128,6,72.751
scf7180000002607.2,2161011,6,72.705
scf7180000002607.2,2093199,6,72.705
scf7180000002607.2,1894006,6,73.719
scf7180000002607.2,1871110,6,73.635
scf7180000002607.2,1820465,6,73.988
scf7180000002607.2,1794495,6,74.601
scf7180000002607.2,1717151,6,75.826
scf7180000002607.2,1679403,6,75.824
scf7180000002607.2,1672821,6,75.892
scf7180000002607.2,1436150,6,76.443
scf7180000002607.2,989707,6,76.744
scf7180000002607.2,977414,6,77.052
scf7180000002607.2,567185,6,77.656
scf7180000002607.2,351824,6,77.963
scf7180000002607.2,320582,6,77.961
scf7180000002607.2,194395,6,77.964
scf7180000002607.2,173670,6,78.26
scf7180000002607.2,152880,6,78.256
scf7180000002607.2,51391,6,78.87
scf7180000002607.2,20585,6,79.177
scf7180000002607.1,5414628,6,81.312
scf7180000002607.1,5378306,6,81.317
scf7180000002607.1,5363549,6,81.313
scf7180000002607.1,5305836,6,81.322
scf7180000002607.1,5027072,6,83.151
scf7180000002607.1,4942523,6,83.461
scf7180000002607.1,4931707,6,83.457
scf7180000002607.1,4443045,6,84.993
scf7180000002607.1,4338331,6,85.348
scf7180000002607.1,4335563,6,85.286
scf7180000002607.1,4273445,6,86.205
scf7180000002607.1,4129377,6,86.9
scf7180000002607.1,3682497,6,88.918
scf7180000002607.1,3681211,6,88.918
scf7180000002607.1,3620038,6,88.869
scf7180000002607.1,3465824,6,89.518
scf7180000002607.1,3308196,6,89.948
scf7180000002607.1,3138943,6,90.127
scf7180000002607.1,2858547,6,92.835
scf7180000002607.1,2657040,10,57.01
scf7180000002607.1,2521263,6,93.08
scf7180000002607.1,2283768,6,93.908
scf7180000002607.1,2214258,6,94.911
scf7180000002607.1,2178709,6,94.911
scf7180000002607.1,2172374,6,94.918
scf7180000002607.1,2034798,6,95.51
scf7180000002607.1,1642003,6,97.582
scf7180000002751,80757,6,97.567
scf7180000002607.1,1442749,6,97.878
scf7180000002607.1,1310856,6,98.174
scf7180000002607.1,1223581,6,98.181
scf7180000002646,26177,6,99.365
scf7180000002646,191935,6,99.564
scf7180000002646,255061,6,99.651
scf7180000002646,562399,6,99.651
scf7180000002646,717372,6,99.649
scf7180000002646,1036007,6,99.66
scf7180000002646,1380307,6,99.727
scf7180000002716,1198938,6,99.946
scf7180000002716,1274355,6,100.535
scf7180000002716,1337420,6,100.83
scf7180000002716,1532857,6,101.696
scf7180000002716,1557403,6,101.685
scf7180000002716,2078838,6,102.262
scf7180000002716,2333511,6,102.219
scf7180000002716,2337680,6,102.096
scf7180000002716,2338593,6,102.274
scf7180000002812,69770,6,102.567
scf7180000002812,184201,6,102.84
scf7180000002812,208405,6,102.856
scf7180000002732,4768062,7,0.005
scf7180000002732,4585706,7,0
scf7180000002732,4040002,7,0.298
scf7180000002732,3023135,7,0.269
scf7180000002732,3700113,7,0.276
scf7180000002732,2490098,7,0.221
scf7180000003002,19119,7,0.269
scf7180000002776,64514,7,0.547
scf7180000003002,189645,7,0.271
scf7180000003583.1,468784,7,0.345
scf7180000003583.1,391997,7,0.198
scf7180000002607.1,4244404,7,0.864
scf7180000003212,1694,7,2.017
scf7180000002602.2,5164435,7,2.606
scf7180000003522,236450,7,3.19
scf7180000003573.3,3318884,7,11.022
scf7180000003573.3,3430892,7,10.439
scf7180000003591,3954090,7,10.144
scf7180000003591,3899652,7,10.144
scf7180000002662,153226,7,4.073
scf7180000002756,1279853,7,5.34
scf7180000002756,959522,7,5.086
scf7180000002756,869508,7,5.197
scf7180000002756,393591,7,5.197
scf7180000002756,393073,7,5.203
scf7180000002756,208487,7,5.258
scf7180000003583.3,4716511,7,5.229
scf7180000003583.3,4712641,7,5.267
scf7180000003583.3,3122477,7,5.197
scf7180000003583.3,2490570,7,5.155
scf7180000003583.3,2472442,7,5.292
scf7180000003583.3,1019813,7,5.198
scf7180000003583.3,519619,7,5.756
scf7180000003583.3,482254,7,6.054
scf7180000003583.3,276256,7,6.621
scf7180000002594.2,2093555,2,26.18
scf7180000002619,1907742,7,6.638
scf7180000002619,1544042,7,6.931
scf7180000002619,1529401,7,6.889
scf7180000002619,1276281,7,7.117
scf7180000002619,693861,7,7.514
scf7180000002619,208538,7,7.516
scf7180000002619,122770,7,7.509
scf7180000003542,102638,7,7.506
scf7180000003542,194393,7,7.473
scf7180000003542,1147551,7,8.69
scf7180000002810,1194157,7,8.965
scf7180000002810,276976,7,9.259
scf7180000003591,1651952,7,9.23
scf7180000003591,1657887,7,9.257
scf7180000003563,107166,7,19.885
scf7180000003573.3,1733331,7,11.281
scf7180000003573.3,2362347,7,11.282
scf7180000003573.3,110590,7,11.575
scf7180000003573.2,3448139,7,11.558
scf7180000003573.2,3255669,7,11.87
scf7180000003573.2,3131691,7,12.174
scf7180000003573.2,2972707,7,12.164
scf7180000003573.2,2970602,7,12.164
scf7180000003573.2,2956510,7,12.218
scf7180000003573.2,2911746,7,12.458
scf7180000003573.2,2713321,7,12.753
scf7180000003573.2,2071867,7,13.048
scf7180000003573.2,1873494,7,13.048
scf7180000003573.2,1678312,7,13.051
scf7180000003573.2,418682,7,14.517
scf7180000003573.2,306775,7,14.647
scf7180000003573.2,244394,7,14.812
scf7180000003573.2,190013,7,15.074
scf7180000002863,30755,7,15.672
scf7180000002863,87519,7,16.845
scf7180000002863,408814,7,18.627
scf7180000002863,527348,7,18.59
scf7180000002863,748643,7,18.611
scf7180000002863,784153,7,18.624
scf7180000003563,790797,7,18.913
scf7180000003563,540782,7,19.071
scf7180000003563,152045,7,19.796
scf7180000003563,75424,7,19.796
scf7180000002594.2,3040098,7,20.704
scf7180000002594.2,2846022,7,22.217
scf7180000002594.2,1743897,7,23.324
scf7180000002594.2,1685902,7,23.312
scf7180000003522,645769,7,24.58
scf7180000002594.2,680089,7,25.128
scf7180000002594.2,501557,7,27.61
scf7180000002970,314048,7,29.177
scf7180000002970,345745,7,29.177
scf7180000002970,498227,7,31.687
scf7180000002970,719099,7,32.931
scf7180000002970,719486,7,32.974
scf7180000002970,796386,7,33.592
scf7180000002970,810397,7,33.562
scf7180000002970,852611,7,33.656
scf7180000002970,861807,7,34.076
scf7180000002970,975304,7,35.638
scf7180000002970,986797,7,35.638
scf7180000003068,87536,7,36.259
scf7180000003068,221429,7,37.187
scf7180000003068,276551,7,37.83
scf7180000003068,475988,7,40.107
scf7180000003068,744365,7,39.975
scf7180000003068,790132,7,40.107
scf7180000003068,896502,7,40.421
scf7180000003111,37027,7,40.417
scf7180000003111,90141,7,40.588
scf7180000002681,89549,7,40.924
scf7180000003557,2221994,7,49.125
scf7180000003557,2279841,7,49.106
scf7180000002671.3,185442,7,48.52
scf7180000002671.3,216538,7,48.52
scf7180000002671.3,221886,7,48.525
scf7180000003035,166676,7,47.844
scf7180000003035,184783,7,47.769
scf7180000003035,280607,7,47.178
scf7180000003035,406090,7,45.988
scf7180000003035,478903,7,45.988
scf7180000003035,635732,7,45.934
scf7180000003035,708631,7,45.931
scf7180000003557,2229611,7,49.127
scf7180000003557,1937865,7,50.573
scf7180000003557,1879454,7,50.585
scf7180000003557,1631390,7,50.628
scf7180000003557,1341625,7,51.755
scf7180000003557,939093,7,52.052
scf7180000003557,428756,7,51.909
scf7180000003557,93402,7,53.504
scf7180000003557,28314,8,41.111
scf7180000002619,1568208,7,56.444
scf7180000003555.2,528908,7,56.536
scf7180000003555.2,293947,7,57.653
scf7180000003555.1,304973,7,58.242
scf7180000003555.1,300241,7,58.242
scf7180000003555.1,187051,7,59.708
scf7180000003555.1,117642,7,59.708
scf7180000002597.2,1372788,7,59.713
scf7180000002597.2,1285332,7,59.647
scf7180000002597.2,997243,7,60.002
scf7180000002597.2,881035,7,60.033
scf7180000002597.2,248345,7,61.25
scf7180000002597.2,201770,7,61.276
scf7180000003546,2054036,8,5.173
scf7180000003546,2047324,8,5.203
scf7180000003546,2008125,8,0
scf7180000003546,1956069,8,6.065
scf7180000003546,1659146,2,12.495
scf7180000003546,1580106,8,8.413
scf7180000003546,1512375,8,8.69
scf7180000003546,1447536,8,8.836
scf7180000003546,1239401,8,9.236
scf7180000003546,954605,8,12.278
scf7180000003546,656791,8,12.879
scf7180000003546,646856,8,12.879
scf7180000003546,523601,8,12.921
scf7180000003591,1462000,8,13.262
scf7180000002672,1117353,8,4.41
scf7180000002672,1046273,8,4.41
scf7180000002672,624170,10,56.952
scf7180000002672,622207,10,56.976
scf7180000003591,66336,8,13.178
scf7180000003591,343829,8,13.176
scf7180000002593.2,2300514,8,17.708
scf7180000002593.2,2239961,8,19.205
scf7180000002593.2,2016038,8,19.8
scf7180000002593.2,1452919,8,20.412
scf7180000002593.1,1154262,8,23.163
scf7180000002593.1,1116000,8,23.469
scf7180000002593.1,1052469,8,23.32
scf7180000002593.1,789455,8,24.302
scf7180000002593.1,497099,8,25.905
scf7180000002593.1,388898,8,25.905
scf7180000003549,1079861,6,10.163
scf7180000003549,925228,6,10.118
scf7180000002593.1,168208,8,26.825
scf7180000002593.1,126654,8,27.13
scf7180000003577,6169880,8,28.364
scf7180000003577,6029175,8,28.699
scf7180000003577,5991701,8,28.364
scf7180000003577,4743111,8,33.577
scf7180000003577,4558697,8,33.943
scf7180000003577,4361939,8,34.45
scf7180000003577,4361736,8,34.481
scf7180000003577,4340253,8,34.673
scf7180000003577,4312825,8,34.472
scf7180000003577,4250673,8,34.481
scf7180000003577,4004776,8,34.779
scf7180000003521.2,5816,8,47.172
scf7180000003521.1,823903,8,46.622
scf7180000003521.1,795082,8,44.453
scf7180000003521.1,717765,8,44.446
scf7180000003521.1,713178,8,44.453
scf7180000003521.1,567345,8,42.913
scf7180000003521.1,552330,8,42.922
scf7180000003577,608030,8,41.422
scf7180000003577,1874721,8,39.607
scf7180000003577,1933972,8,38.678
scf7180000003577,1955997,8,38.372
scf7180000003577,2039197,8,37.446
scf7180000003577,2050021,8,37.13
scf7180000003577,2773425,8,35.163
scf7180000003577,3321647,8,35.085
scf7180000003577,3470766,8,35.186
scf7180000003577,3555962,8,34.863
scf7180000003577,3564612,8,34.796
scf7180000003521.2,2159245,8,49.717
scf7180000003521.2,2356406,8,49.839
scf7180000003597,2769911,1,4.4
scf7180000003597,3032501,1,4.387
scf7180000003521.2,337652,8,48.091
scf7180000003521.2,648567,8,48.326
scf7180000003521.2,835233,8,48.618
scf7180000003521.2,882646,8,48.79
scf7180000003521.2,895366,8,48.618
scf7180000003521.2,1297091,8,49.71
scf7180000003521.2,1351154,8,49.769
scf7180000003521.2,1407904,8,49.756
scf7180000003521.2,1414752,8,49.762
scf7180000003584,3268286,8,51.245
scf7180000003584,2812203,8,51.448
scf7180000003584,2783871,8,51.489
scf7180000002679,1102152,8,51.768
scf7180000002679,1317199,8,52.068
scf7180000002679,1605184,8,52.365
scf7180000002679,1664599,8,52.663
scf7180000002679,3624290,8,53.613
scf7180000002679,3639535,8,54.157
scf7180000002679,3746396,8,54.374
scf7180000002596.3,417498,8,56.927
scf7180000002596.2,1449592,8,58.088
scf7180000002596.2,501343,8,58.399
scf7180000002596.2,490712,8,58.51
scf7180000002596.2,336121,8,58.357
scf7180000002596.2,124713,8,58.402
scf7180000002596.2,106932,8,58.399
scf7180000003003,312169,8,58.402
scf7180000003003,312188,8,58.397
scf7180000002749,78009,8,58.452
scf7180000002622.3,7162078,8,58.986
scf7180000002622.3,6399947,8,59.277
scf7180000002622.3,6224860,8,59.52
scf7180000002622.3,5647923,8,80.225
scf7180000002622.3,4979388,8,59.572
scf7180000002622.3,4378552,8,60.577
scf7180000002622.3,4216522,8,60.445
scf7180000002622.3,4181839,8,60.448
scf7180000002622.3,4034055,8,60.445
scf7180000002622.3,3925160,8,61.029
scf7180000002622.3,3589472,8,61.029
scf7180000002622.3,3560772,8,61.075
scf7180000002622.3,2960137,8,60.979
scf7180000002622.3,2623714,8,61.321
scf7180000002622.3,2386025,8,62.248
scf7180000002622.3,2177464,8,62.21
scf7180000002622.3,1828063,8,62.191
scf7180000002622.3,1827264,8,62.286
scf7180000002622.3,1762626,8,62.079
scf7180000002622.3,1090301,8,62.429
scf7180000002622.3,807767,8,63.313
scf7180000002622.3,634224,8,63.373
scf7180000002622.3,629037,8,63.316
scf7180000002962,93649,8,63.37
scf7180000002962,356915,8,63.878
scf7180000002739.1,75472,8,91.658
scf7180000002739.1,102614,8,91.554
scf7180000002739.1,284117,8,92.69
scf7180000002739.1,289251,8,92.783
scf7180000002739.1,564702,8,94.009
scf7180000002739.1,569482,8,94.26
scf7180000002739.1,745172,8,94.025
scf7180000002739.2,71527,8,94.667
scf7180000002739.2,320240,8,97.111
scf7180000003583.4,525626,8,65.05
scf7180000003583.4,710623,8,65.483
scf7180000003583.4,1854391,8,67.45
scf7180000003583.4,2004804,8,67.471
scf7180000003583.4,2834250,8,67.45
scf7180000003583.4,3091336,8,67.766
scf7180000003583.4,3894837,8,69.282
scf7180000003583.4,3975239,8,69.436
scf7180000003583.4,4406037,8,70.196
scf7180000003072,130262,8,71.399
scf7180000003573.1,2996135,7,7.236
scf7180000003074,142666,8,71.419
scf7180000003072,185671,8,71.419
scf7180000003037,639632,8,71.683
scf7180000003037,418295,8,72.611
scf7180000003037,411274,8,72.611
scf7180000003037,291123,8,72.616
scf7180000003037,219357,8,72.619
scf7180000002600.2,4553307,8,74.444
scf7180000002600.2,3863714,8,76.561
scf7180000002600.2,3856450,8,76.569
scf7180000002600.2,3685501,8,77.789
scf7180000002600.2,3294045,8,78.734
scf7180000002600.2,3176164,8,78.484
scf7180000002600.2,3130340,8,78.668
scf7180000002600.2,3077226,8,78.712
scf7180000002600.2,3004790,8,79.334
scf7180000002600.2,2994938,8,79.634
scf7180000002600.2,2928966,8,79.92
scf7180000002600.2,2713271,8,80.567
scf7180000002600.2,2708293,8,80.586
scf7180000002600.2,1802268,8,80.842
scf7180000002600.2,1739546,8,80.903
scf7180000002600.2,1152574,8,81.46
scf7180000002600.2,1148103,8,81.448
scf7180000002870,1528592,8,81.382
scf7180000002600.2,1077443,8,81.572
scf7180000002600.2,211859,8,82.987
scf7180000002600.1,1856456,8,85.092
scf7180000002600.1,1805447,8,85.398
scf7180000002600.1,1187230,8,90.984
scf7180000003549,424730,8,91.608
scf7180000002600.1,894646,8,91.562
scf7180000002600.1,883711,8,91.399
scf7180000002616,577380,8,91.557
scf7180000002616,583605,8,91.554
scf7180000002739.2,834006,8,100.484
scf7180000002739.2,1078669,8,101.398
scf7180000002739.2,1193002,8,102.007
scf7180000002739.2,1343564,8,102.837
scf7180000003603.2,1651358,8,104.408
scf7180000003553.1,179232,8,104.705
scf7180000003553.1,868861,8,107.096
scf7180000003553.1,874339,8,107.103
scf7180000003553.2,196468,8,107.994
scf7180000003553.2,210992,8,107.968
scf7180000003553.2,227440,8,107.968
scf7180000003553.2,267890,8,108.264
scf7180000003553.2,450069,8,108.283
scf7180000003555.3,2199705,8,108.264
scf7180000003555.3,1725124,8,108.852
scf7180000003573.2,1093968,7,13.641
scf7180000002943,274375,8,110.918
scf7180000003555.3,388399,8,109.437
scf7180000003555.3,889993,8,109.15
scf7180000003567,595386,9,0.048
scf7180000003567,605320,9,0.048
scf7180000003567,636336,9,0
scf7180000002794,687227,9,1.169
scf7180000002580.2,367021,9,1.516
scf7180000002580.2,397993,9,1.481
scf7180000002580.2,1158172,9,2.15
scf7180000002580.2,1179227,9,2.14
scf7180000002580.2,1486918,9,2.15
scf7180000002580.2,1768507,9,2.426
scf7180000002580.2,1821854,9,2.4
scf7180000002580.2,2069722,9,2.047
scf7180000002595,645709,9,2.426
scf7180000002595,870709,9,2.418
scf7180000002595,2470373,9,5.02
scf7180000002595,2538944,9,5.024
scf7180000002595,2558752,9,5.021
scf7180000003589,302657,9,5.012
scf7180000003589,437975,9,5.024
scf7180000002608,5464344,9,5.021
scf7180000002608,5313559,9,5.632
scf7180000002608,5305601,9,5.664
scf7180000002716,122733,9,6.191
scf7180000002716,219450,9,6.193
scf7180000002838,603564,9,7.599
scf7180000003198,21214,9,7.067
scf7180000002838,916544,9,7.052
scf7180000002838,853841,9,7.638
scf7180000002838,420948,9,7.931
scf7180000002838,77285,9,8.809
scf7180000002608,5576134,9,8.721
scf7180000002604.2,1753783,9,9.496
scf7180000002604.2,678478,9,10.88
scf7180000002604.2,575949,9,10.88
scf7180000002604.2,574301,9,10.892
scf7180000003581,125085,9,11.466
scf7180000003581,165403,9,11.493
scf7180000003581,328708,9,11.466
scf7180000003572,2129211,9,11.75
scf7180000003572,1865789,9,12.044
scf7180000003572,1493293,9,12.383
scf7180000003572,1260884,9,13.234
scf7180000003572,1121896,9,13.225
scf7180000002591,7063735,9,14.433
scf7180000002591,6373219,9,14.481
scf7180000002591,5863030,9,20.754
scf7180000002591,5313660,9,22.635
scf7180000002591,5306746,9,22.624
scf7180000002591,4949373,9,26.521
scf7180000002591,4920460,9,26.502
scf7180000002591,4905913,9,26.573
scf7180000002591,3584792,9,35.733
scf7180000002591,3381449,9,36.314
scf7180000002591,3215385,9,37.573
scf7180000002603,4037879,9,43.339
scf7180000002603,3879575,9,43.703
scf7180000002603,3804204,9,43.649
scf7180000002603,3712088,9,45.766
scf7180000002603,3691732,9,45.902
scf7180000002603,3475841,9,47.321
scf7180000002603,3045400,9,48.448
scf7180000002603,3041390,9,48.486
scf7180000002603,3039372,9,48.448
scf7180000002603,2449846,9,50.128
scf7180000002603,2426145,9,50.128
scf7180000002603,2097295,9,50.711
scf7180000002603,2074159,9,50.711
scf7180000002603,2037075,9,51.004
scf7180000002603,1579585,9,55.323
scf7180000002603,593183,9,56.492
scf7180000002603,499584,9,57.614
scf7180000002603,449013,9,57.614
scf7180000002603,344489,9,58.345
scf7180000002770,229190,9,58.49
scf7180000002770,249176,9,58.492
scf7180000002770,364689,9,58.781
scf7180000002770,403099,9,58.781
scf7180000002770,557518,9,59.072
scf7180000002770,1132413,9,59.931
scf7180000002770,1307630,9,60.739
scf7180000002770,1335041,9,60.743
scf7180000002770,1719417,9,61.037
scf7180000002770,1753596,9,61.32
scf7180000002770,1881811,9,61.32
scf7180000002770,2648835,9,62.788
scf7180000002770,2683312,9,62.56
scf7180000002671.3,463229,9,63.971
scf7180000002671.3,987295,9,65.714
scf7180000002671.3,1045141,9,65.733
scf7180000002671.3,1123383,9,66.031
scf7180000002671.3,1578912,9,68.084
scf7180000002732,4805876,9,68.397
scf7180000002607.1,2767558,9,68.675
scf7180000003566,371652,10,0.002
scf7180000003566,384930,10,0
scf7180000003566,385073,10,0.016
scf7180000003566,475774,10,0.31
scf7180000002641.1,209246,10,0.602
scf7180000002641.1,266187,10,0.632
scf7180000002641.1,353814,10,0.602
scf7180000002641.1,974245,10,1.193
scf7180000002641.1,1085969,10,1.894
scf7180000002641.1,1208877,10,2.286
scf7180000002641.1,1249660,10,2.592
scf7180000002641.1,1321317,10,2.603
scf7180000002641.1,1439281,10,3.326
scf7180000002641.1,1514622,10,3.374
scf7180000002641.1,1554483,10,4.198
scf7180000002641.1,1768178,10,5.36
scf7180000002641.1,1810489,10,5.651
scf7180000002641.1,1860769,10,5.651
scf7180000002641.1,2238014,10,5.943
scf7180000002641.1,2287130,10,5.943
scf7180000002641.1,2321047,10,5.997
scf7180000002641.1,2353830,10,6.301
scf7180000002641.1,2589179,10,6.821
scf7180000002641.2,211639,10,7.408
scf7180000002641.2,271706,10,8.452
scf7180000002641.2,476819,10,9.101
scf7180000002641.2,476880,10,8.95
scf7180000002920,968,10,8.928
scf7180000002920,301504,10,9.332
scf7180000002920,714535,10,9.948
scf7180000003175,260175,10,11.674
scf7180000003175,291370,10,11.854
scf7180000002671.2,1093012,10,12.798
scf7180000002597.2,2257400,10,14.016
scf7180000002597.2,1514106,10,15.373
scf7180000002597.1,6636253,10,18.422
scf7180000002597.1,6496928,10,19.546
scf7180000002597.1,6367240,10,20.021
scf7180000002597.1,6250077,10,20.92
scf7180000002597.1,6222050,10,20.915
scf7180000002597.1,6124695,10,20.926
scf7180000002597.1,6081036,10,21.18
scf7180000002597.1,6028022,10,21.273
scf7180000002597.1,5883004,10,21.18
scf7180000002597.1,5783809,10,21.427
scf7180000002597.1,5780381,10,21.793
scf7180000002597.1,5258471,10,22.324
scf7180000002597.1,5224279,10,39.042
scf7180000002597.1,4721652,10,23.432
scf7180000002597.1,4264462,10,24.34
scf7180000002597.1,4050650,10,24.744
scf7180000002597.1,3842331,10,25.756
scf7180000002597.1,3696513,10,26.836
scf7180000002597.1,3209119,10,28.025
scf7180000002597.1,2706435,10,28.935
scf7180000002597.1,2624506,10,29.239
scf7180000002597.1,2595829,10,29.152
scf7180000002597.1,2384580,10,29.844
scf7180000002597.1,2082519,10,31.819
scf7180000002597.1,1949291,10,32.745
scf7180000002680,523264,10,33.635
scf7180000002680,243741,10,33.635
scf7180000002585.2,2044071,10,36.357
scf7180000002585.2,3488419,10,38.442
scf7180000002585.2,3324953,10,38.429
scf7180000002585.2,2995661,10,38.446
scf7180000002585.2,2928595,10,38.446
scf7180000002585.2,2792855,10,37.26
scf7180000003555.3,1486795,8,109.084
scf7180000002603,934453,8,109.164
scf7180000002585.3,859522,10,38.501
scf7180000003564,375859,10,38.392
scf7180000003603.2,28458,10,39.64
scf7180000003603.2,74452,10,40.407
scf7180000003603.2,76934,10,40.499
scf7180000003603.2,161998,10,41.107
scf7180000003603.2,221576,10,41.693
scf7180000003603.2,329832,10,41.993
scf7180000003603.2,414529,10,42.286
scf7180000003603.2,959588,10,42.289
scf7180000003603.2,1015894,10,42.289
scf7180000003603.2,1111962,10,42.586
scf7180000003603.2,1112003,10,42.62
scf7180000003603.2,1424578,10,43.178
scf7180000003603.2,1880567,10,43.477
scf7180000003603.2,1900013,10,43.478
scf7180000003603.2,1937175,10,43.477
scf7180000003603.2,2073335,10,43.523
scf7180000003603.2,2296219,10,43.48
scf7180000003578.1,825555,10,43.441
scf7180000003578.1,1163075,10,44.076
scf7180000002688,2246778,10,47.057
scf7180000002688,1954911,10,47.614
scf7180000002688,1753002,10,48.81
scf7180000002688,1751346,10,48.65
scf7180000002688,1039514,10,49.099
scf7180000002688,721525,10,51.847
scf7180000002688,706947,10,52.095
scf7180000002688,64709,10,55.48
scf7180000002702,439417,10,55.787
scf7180000002702,484728,10,56.398
scf7180000002702,676958,10,57.01
scf7180000002684,1942745,10,56.932
scf7180000002684,1903047,10,59.758
scf7180000003039,237858,10,62.218
scf7180000003039,946224,10,65.839
scf7180000003039,964200,10,65.848
scf7180000003039,1678376,10,65.839
scf7180000003039,1738627,10,66.119
scf7180000003039,1748390,10,66.112
scf7180000003221,7690,10,66.138
scf7180000003039,1984353,10,66.096
scf7180000003039,2134837,10,67.334
scf7180000003039,2399745,10,67.229
scf7180000002864.2,183451,10,68.838
scf7180000002864.2,463441,10,69.386
scf7180000002864.2,3208830,10,74.857
scf7180000002864.2,3250071,10,74.857
scf7180000002618,942294,10,77.246
scf7180000002618,768898,10,77.546
scf7180000002618,267146,10,78.464
scf7180000003163,48562,10,78.74
scf7180000003588,1974100,11,13.965
scf7180000003588,2095715,11,14.427
scf7180000002598.1,284425,11,0
scf7180000002598.1,522861,11,1.765
scf7180000002598.1,869813,11,2.975
scf7180000002598.1,1700823,11,7.173
scf7180000002598.2,156271,11,9.396
scf7180000002598.2,227204,11,9.231
scf7180000002598.2,422747,11,10.952
scf7180000002598.2,452571,11,11.298
scf7180000003588,100709,11,11.19
scf7180000003588,104932,11,11.243
scf7180000003588,157585,11,11.593
scf7180000003588,581229,11,11.86
scf7180000003588,845295,11,12.68
scf7180000003588,884115,11,12.981
scf7180000003588,1028621,11,13.828
scf7180000003588,2298685,11,14.426
scf7180000003588,3291412,11,14.426
scf7180000003588,3306582,11,14.396
scf7180000003588,2747248,11,14.787
scf7180000003588,5337433,11,14.733
scf7180000002585.1,2110876,11,15.875
scf7180000002585.1,1839153,11,16.474
scf7180000002585.1,790595,11,17.07
scf7180000002585.1,435937,11,17.336
scf7180000002585.1,196214,11,18.002
scf7180000002674,148364,11,20.343
scf7180000002674,237853,11,20.346
scf7180000002674,240777,11,20.647
scf7180000002739.2,18619,11,20.98
scf7180000002674,479998,11,21.246
scf7180000002674,725250,11,21.244
scf7180000002674,726480,11,21.268
scf7180000002674,1049488,11,21.549
scf7180000002674,1199778,11,22.146
scf7180000002674,1202452,11,22.123
scf7180000002674,1307486,11,22.453
scf7180000003562,107360,11,22.453
scf7180000003562,450238,11,27.11
scf7180000003584,2386289,11,29.62
scf7180000003584,2260221,11,29.94
scf7180000003584,1743172,11,34.28
scf7180000003584,1714434,11,34.208
scf7180000003584,1610488,11,34.266
scf7180000003584,1268060,11,35.819
scf7180000003584,844506,11,36.138
scf7180000003584,833116,11,36.138
scf7180000003584,564271,11,36.756
scf7180000003584,253348,11,37.373
scf7180000003584,181864,11,37.987
scf7180000003584,172496,11,37.987
scf7180000003584,30090,11,39.176
scf7180000003552,1761084,11,43.408
scf7180000003552,1277089,11,42.493
scf7180000003552,1276709,11,42.386
scf7180000003552,1275176,11,42.498
scf7180000003552,898325,11,42.197
scf7180000003552,549952,11,39.773
scf7180000003552,114408,11,39.17
scf7180000003569,585956,11,43.389
scf7180000003599,280928,11,43.393
scf7180000003569,617580,11,43.389
scf7180000003569,370532,11,43.696
scf7180000003569,270739,11,44.883
scf7180000003569,261700,11,44.88
scf7180000003569,254225,11,44.88
scf7180000003569,156159,11,45.764
scf7180000002799,960562,11,46.059
scf7180000002799,560408,11,46.352
scf7180000002799,472667,11,46.344
scf7180000002870,958868,5,49.42
scf7180000002870,1500345,5,48.828
scf7180000002598.1,76044,11,43.305
scf7180000002598.1,74940,11,43.393
scf7180000003583.5,717386,11,48.002
scf7180000003550,5655755,11,48.298
scf7180000003550,5654795,11,48.297
scf7180000003550,5652754,11,48.295
scf7180000003550,5529003,11,48.297
scf7180000003550,75013,11,49.172
scf7180000003550,444366,11,50.594
scf7180000003550,492606,11,50.63
scf7180000003550,698673,11,52.726
scf7180000003550,844651,11,53.006
scf7180000003550,1067799,11,53.425
scf7180000003550,1257541,11,54.335
scf7180000003550,1271826,11,54.64
scf7180000003550,1315669,11,54.937
scf7180000003550,1673454,11,56.445
scf7180000003550,1714960,11,56.369
scf7180000003550,2235563,11,56.75
scf7180000003550,2273816,11,56.75
scf7180000003550,2620358,11,57.305
scf7180000003550,2666335,11,57.607
scf7180000003550,2744257,11,58.5
scf7180000003550,3215581,11,61.226
scf7180000003583.5,2234494,11,47.806
scf7180000003583.5,2802848,11,48.002
scf7180000003583.5,2837204,11,48.047
scf7180000002799,84168,11,47.557
scf7180000003550,3519465,11,62.745
scf7180000003550,3521612,11,62.745
scf7180000003550,3617700,11,62.883
scf7180000003550,4227067,11,63.055
scf7180000003550,4227628,11,63.05
scf7180000003550,4295772,11,63.05
scf7180000003550,4295802,11,63.057
scf7180000003550,4469796,11,64.564
scf7180000003550,4592473,11,65.48
scf7180000002695.2,1296691,11,66.999
scf7180000002695.2,948419,11,67.609
scf7180000002695.2,902801,11,67.498
scf7180000002695.2,554926,11,69.716
scf7180000002695.2,267277,11,70.931
scf7180000002695.2,212757,11,70.936
scf7180000002590.2,300293,11,73.238
scf7180000002590.2,438050,11,73.539
scf7180000002590.2,553738,11,74.424
scf7180000002590.2,1092839,11,74.989
scf7180000002590.2,1391436,11,74.989
scf7180000002590.2,1711396,11,75.292
scf7180000002590.2,1817837,11,75.212
scf7180000002590.2,1830390,11,75.292
scf7180000002590.2,1840947,11,75.594
scf7180000002590.2,1912859,11,75.602
scf7180000002590.2,2023856,11,75.871
scf7180000002590.2,2153725,11,75.871
scf7180000002904,58034,11,76.774
scf7180000002590.2,2360737,11,76.794
scf7180000002590.2,2607290,11,77.682
scf7180000002590.3,434715,11,78.6
scf7180000002590.3,622233,11,78.589
scf7180000002590.3,1283461,11,79.193
scf7180000002590.3,1527546,11,80.994
scf7180000002590.3,1543438,11,81.295
scf7180000002590.3,1847287,11,82.565
scf7180000002590.3,1952901,11,84
scf7180000002590.3,2013310,11,84.062
scf7180000002590.3,2100979,11,83.697
scf7180000002590.3,2963863,11,87.589
scf7180000002590.3,3041116,11,87.584
scf7180000002590.3,3109119,11,87.872
scf7180000002590.3,3340490,11,88.169
scf7180000002590.3,3459500,11,88.169
scf7180000003135,243903,11,89.064
scf7180000003135,431605,11,89.084
